1,2,5,12,5,3
1,2,13,2,4,176
2,2,1,12,5,146
2,2,0,4,5,12
3,1,5,7,8,19
4,6,9,11,8,35
4,6,10,9,7,48
4,6,0,10,2,111
4,6,11,6,5,252
4,6,7,2,4,53
4,6,0,7,2,22
5,5,2,13,4,243
5,5,12,9,4,23
5,5,6,10,8,75
5,5,1,8,6,46
5,5,11,12,6,134
6,5,5,13,7,572
6,5,3,5,5,4
6,5,13,11,6,43
6,5,9,2,7,75
6,5,5,8,3,56
7,6,6,9,1,76
7,6,10,1,7,17
7,6,0,1,1,30
7,6,2,8,7,254
7,6,6,10,4,41
7,6,5,3,6,58
8,4,4,7,2,15
8,4,4,1,1,8
8,4,7,3,7,182
8,4,10,3,5,137
9,4,10,7,5,2
9,4,12,4,2,38
9,4,4,0,8,265
9,4,3,5,3,197
10,4,2,10,4,278
10,4,1,13,3,15
10,4,0,7,4,416
10,4,8,6,1,32
11,7,5,11,2,20
11,7,12,8,6,4
11,7,11,6,7,25
11,7,1,0,6,22
11,7,8,4,8,63
11,7,11,1,5,59
11,7,0,2,4,19
12,3,12,10,3,202
12,3,7,11,8,34
12,3,13,2,4,23
13,3,5,6,7,15
13,3,8,2,4,20
13,3,7,8,2,116
14,5,1,12,8,126
14,5,3,2,1,30
14,5,7,8,1,187
14,5,8,0,4,12
14,5,4,12,2,73
15,4,12,2,5,26
15,4,5,8,7,131
15,4,2,8,2,10
15,4,0,2,3,82
16,3,4,1,2,209
16,3,3,11,5,41
16,3,5,7,1,195
17,1,0,7,5,127
18,3,10,11,5,1
18,3,8,7,1,56
18,3,2,8,3,20
19,5,7,13,6,137
19,5,3,0,1,122
19,5,8,1,8,11
19,5,2,6,8,127
19,5,4,10,8,16
20,5,3,6,1,6
20,5,1,8,5,203
20,5,13,1,8,101
20,5,2,11,6,258
20,5,9,0,3,96
21,7,0,7,5,131
21,7,5,6,3,81
21,7,7,0,2,27
21,7,5,0,8,272
21,7,4,3,5,112
21,7,4,5,8,35
21,7,0,7,1,14
22,7,1,3,7,92
22,7,10,9,6,133
22,7,10,7,6,22
22,7,9,0,1,66
22,7,4,1,3,33
22,7,11,12,1,57
22,7,10,5,4,95
23,2,3,9,2,169
23,2,6,3,2,50
24,9,6,11,6,264
24,9,8,1,3,390
24,9,13,7,5,91
24,9,6,7,7,193
24,9,8,4,2,6
24,9,11,8,7,48
24,9,2,7,5,158
24,9,11,4,2,9
24,9,7,1,4,124
25,8,1,7,8,141
25,8,11,13,4,47
25,8,9,2,5,89
25,8,13,8,3,94
25,8,3,7,5,9
25,8,1,7,4,410
25,8,9,4,3,84
25,8,5,6,7,2
26,4,6,1,1,143
26,4,0,2,6,21
26,4,2,8,1,94
26,4,6,10,7,86
27,1,9,0,4,64
28,5,7,5,2,49
28,5,12,6,4,222
28,5,6,3,2,27
28,5,11,1,4,36
28,5,5,2,1,177
29,5,5,1,8,4
29,5,2,10,4,99
29,5,5,10,2,83
29,5,9,11,8,60
29,5,1,9,6,199
30,8,12,5,7,90
30,8,13,9,8,10
30,8,7,13,1,324
30,8,0,13,6,19
30,8,4,6,3,16
30,8,7,8,7,31
30,8,12,1,2,1
30,8,9,7,8,59
31,5,1,10,4,178
31,5,6,1,4,36
31,5,12,3,3,54
31,5,13,0,7,105
31,5,12,10,3,3
32,5,12,8,3,66
32,5,4,2,1,30
32,5,7,6,3,26
32,5,6,9,3,77
32,5,12,6,7,16
33,4,4,7,6,100
33,4,10,13,2,69
33,4,3,9,5,96
33,4,0,11,3,31
34,3,5,9,5,2
34,3,4,10,7,136
34,3,4,11,2,17
35,4,7,10,5,107
35,4,1,3,4,23
35,4,1,4,4,16
35,4,13,2,7,48
36,5,9,3,1,158
36,5,4,6,1,97
36,5,6,1,5,226
36,5,4,7,7,57
36,5,8,11,4,18
37,6,4,5,2,55
37,6,13,9,5,16
37,6,1,6,5,29
37,6,13,3,2,98
37,6,3,5,1,96
37,6,13,7,7,113
38,11,6,5,3,141
38,11,6,8,5,12
38,11,11,3,1,45
38,11,2,1,7,119
38,11,1,2,1,64
38,11,10,5,3,22
38,11,3,0,6,31
38,11,6,5,7,19
38,11,12,3,1,60
38,11,1,13,5,111
38,11,1,11,6,52
39,4,7,1,2,89
39,4,0,10,6,13
39,4,10,0,5,37
39,4,0,6,4,60
40,9,5,12,2,38
40,9,13,2,1,89
40,9,11,7,8,259
40,9,9,4,1,31
40,9,7,11,6,102
40,9,5,13,3,40
40,9,7,11,8,457
40,9,0,5,1,22
40,9,4,10,1,106
41,6,3,0,4,6
41,6,7,3,6,57
41,6,5,2,2,5
41,6,11,3,4,197
41,6,5,8,2,40
41,6,6,2,7,293
42,6,12,3,5,74
42,6,13,9,5,16
42,6,0,3,6,18
42,6,6,9,4,50
42,6,7,12,1,14
42,6,13,10,8,144
43,6,8,1,2,63
43,6,3,13,6,33
43,6,1,6,5,24
43,6,9,13,6,60
43,6,7,0,5,98
43,6,5,6,5,51
44,2,12,8,8,28
44,2,5,1,6,140
45,6,9,4,1,76
45,6,9,8,7,388
45,6,4,3,7,24
45,6,6,2,8,40
45,6,4,6,1,308
45,6,2,0,4,26
46,4,7,10,7,13
46,4,8,9,7,35
46,4,7,6,4,74
46,4,1,12,3,40
47,7,8,6,8,20
47,7,2,9,3,12
47,7,7,5,8,3
47,7,7,9,8,20
47,7,5,2,7,73
47,7,7,12,2,169
47,7,8,11,2,65
48,2,1,12,6,3
48,2,4,6,4,57
49,7,9,8,7,65
49,7,1,13,6,39
49,7,5,11,8,62
49,7,0,2,7,197
49,7,8,7,5,76
49,7,4,2,1,100
49,7,11,0,4,5
50,6,6,3,2,139
50,6,11,0,6,80
50,6,8,11,6,203
50,6,6,1,8,20
50,6,2,13,1,141
50,6,11,5,5,28
51,5,1,13,2,239
51,5,4,1,3,62
51,5,1,2,4,144
51,5,13,11,5,10
51,5,8,2,2,32
52,4,10,4,4,126
52,4,13,1,7,171
52,4,0,8,2,22
52,4,0,12,3,56
53,3,1,13,7,28
53,3,13,6,2,61
53,3,5,2,3,19
54,1,6,7,6,53
55,8,8,5,2,221
55,8,4,7,8,50
55,8,10,8,1,112
55,8,1,9,4,32
55,8,7,3,7,105
55,8,11,10,5,28
55,8,13,0,6,9
55,8,11,3,1,88
56,7,2,6,8,6
56,7,7,4,6,5
56,7,7,2,4,93
56,7,7,9,8,113
56,7,8,2,2,60
56,7,1,10,5,33
56,7,13,9,6,94
57,9,12,0,1,27
57,9,3,6,8,7
57,9,10,13,2,6
57,9,8,0,4,123
57,9,4,2,8,102
57,9,10,7,8,299
57,9,12,2,7,82
57,9,13,4,2,10
57,9,4,7,6,25
58,4,7,6,4,143
58,4,3,4,7,54
58,4,12,13,4,110
58,4,7,5,6,108
59,8,8,10,2,80
59,8,10,11,3,63
59,8,10,8,1,28
59,8,11,8,2,110
59,8,9,1,1,16
59,8,1,6,1,13
59,8,3,1,4,5
59,8,5,4,8,242
60,6,1,2,3,139
60,6,1,6,5,49
60,6,1,5,6,35
60,6,6,5,1,262
60,6,2,1,4,15
60,6,12,6,3,32
61,10,6,10,7,23
61,10,4,10,5,385
61,10,12,7,4,111
61,10,2,12,1,452
61,10,1,11,8,381
61,10,12,0,8,6
61,10,7,12,7,79
61,10,11,2,1,239
61,10,4,0,3,47
61,10,1,6,3,12
62,3,3,5,6,107
62,3,8,3,8,39
62,3,3,0,7,133
63,4,4,6,6,23
63,4,8,0,3,111
63,4,11,4,5,25
63,4,11,10,8,19
64,4,2,13,7,52
64,4,10,11,2,120
64,4,1,4,7,75
64,4,2,6,8,47
65,6,13,2,3,65
65,6,7,8,8,30
65,6,4,13,4,93
65,6,4,7,7,79
65,6,4,11,8,78
65,6,8,3,8,33
66,9,8,4,5,37
66,9,9,3,7,151
66,9,2,7,7,54
66,9,7,12,7,118
66,9,9,12,6,32
66,9,12,8,2,5
66,9,6,3,2,2
66,9,11,6,7,4
66,9,12,3,1,11
67,5,7,3,6,29
67,5,4,8,1,40
67,5,7,13,3,135
67,5,13,3,1,59
67,5,3,12,2,77
68,5,3,7,2,21
68,5,8,0,7,8
68,5,13,9,8,60
68,5,8,4,7,171
68,5,4,9,8,97
69,2,0,2,3,5
69,2,10,0,2,50
70,4,9,8,6,8
70,4,9,5,6,3
70,4,0,13,2,27
70,4,13,10,4,5
71,7,4,6,2,45
71,7,10,6,7,18
71,7,11,7,7,153
71,7,12,11,2,23
71,7,9,5,2,8
71,7,8,0,5,156
71,7,5,13,7,164
72,3,7,1,8,1
72,3,6,11,2,85
72,3,10,1,3,39
73,7,5,7,8,94
73,7,6,9,7,12
73,7,10,11,7,107
73,7,9,4,7,93
73,7,2,12,5,125
73,7,2,5,4,35
73,7,4,5,7,59
74,4,3,0,5,12
74,4,5,13,3,86
74,4,4,13,8,234
74,4,0,7,7,23
75,8,4,11,5,66
75,8,8,0,1,13
75,8,0,4,6,239
75,8,5,6,7,1
75,8,1,0,8,103
75,8,9,5,2,84
75,8,5,7,7,294
75,8,2,7,4,340
76,5,5,7,5,42
76,5,1,13,5,24
76,5,9,3,8,51
76,5,8,5,1,75
76,5,1,8,5,90
77,5,4,5,3,127
77,5,5,9,3,33
77,5,6,5,6,52
77,5,9,11,6,174
77,5,1,10,4,149
78,8,13,7,3,60
78,8,7,9,5,20
78,8,9,3,7,32
78,8,11,3,7,85
78,8,1,13,1,44
78,8,9,8,7,6
78,8,12,5,1,140
78,8,7,11,8,316
79,7,3,12,1,77
79,7,2,0,4,89
79,7,6,10,1,130
79,7,5,12,6,263
79,7,0,1,6,96
79,7,3,2,8,24
79,7,6,8,6,463
80,5,12,1,3,159
80,5,8,11,7,404
80,5,10,6,6,84
80,5,1,11,1,32
80,5,0,13,6,26
81,5,12,0,3,106
81,5,3,5,7,104
81,5,7,5,2,62
81,5,5,13,7,76
81,5,7,1,3,72
82,7,0,13,7,162
82,7,1,5,7,50
82,7,2,9,8,70
82,7,11,4,6,58
82,7,12,1,1,91
82,7,9,6,1,110
82,7,0,2,5,92
83,3,10,3,4,132
83,3,3,12,6,26
83,3,2,10,5,163
84,4,6,12,2,231
84,4,13,6,2,48
84,4,3,4,3,67
84,4,0,4,8,68
85,3,10,2,4,120
85,3,13,4,3,158
85,3,9,12,4,123
86,2,12,8,5,52
86,2,5,2,5,204
87,5,9,5,8,95
87,5,9,10,4,63
87,5,12,10,5,28
87,5,4,8,8,269
87,5,6,8,8,81
88,7,5,9,7,60
88,7,4,8,4,2
88,7,12,7,8,79
88,7,4,9,4,144
88,7,3,0,6,11
88,7,10,5,8,365
88,7,2,9,8,18
89,3,12,4,5,17
89,3,9,4,7,8
89,3,2,4,6,8
90,3,9,4,6,95
90,3,3,9,5,105
90,3,9,12,1,32
91,8,1,12,5,103
91,8,3,6,5,126
91,8,0,7,7,3
91,8,0,13,4,55
91,8,11,6,5,31
91,8,7,5,1,43
91,8,3,2,2,57
91,8,7,9,1,88
92,5,10,13,6,56
92,5,12,6,4,81
92,5,11,3,4,31
92,5,4,11,6,31
92,5,13,8,1,124
93,6,10,7,4,58
93,6,9,3,2,78
93,6,13,3,5,2
93,6,4,5,7,42
93,6,10,4,3,109
93,6,7,6,4,232
94,1,4,8,8,12
95,8,0,6,6,18
95,8,2,7,5,2
95,8,5,4,2,8
95,8,11,5,6,20
95,8,8,7,6,250
95,8,4,8,5,196
95,8,1,13,5,26
95,8,5,13,8,31
96,4,9,12,1,274
96,4,0,11,5,29
96,4,12,11,3,35
96,4,2,10,6,80
97,5,9,4,7,460
97,5,0,3,5,50
97,5,1,4,1,33
97,5,7,13,3,90
97,5,2,11,7,25
98,3,0,3,8,143
98,3,12,7,5,77
98,3,2,8,7,40
100,2,10,12,5,22
100,2,3,13,4,55
101,4,13,8,5,36
101,4,13,3,2,23
101,4,13,4,6,207
101,4,5,10,7,362
102,2,5,13,3,210
102,2,0,8,1,50
103,4,1,7,1,54
103,4,12,9,6,17
103,4,2,9,4,49
103,4,1,8,2,9
104,3,0,8,3,117
104,3,3,6,1,27
104,3,3,8,4,144
105,7,1,12,5,58
105,7,7,12,3,137
105,7,11,3,3,24
105,7,1,11,8,110
105,7,4,7,2,136
105,7,5,6,2,20
105,7,10,5,4,213
106,7,1,9,5,49
106,7,10,4,7,74
106,7,0,2,8,26
106,7,2,5,5,8
106,7,3,10,6,9
106,7,0,13,1,15
106,7,3,0,6,24
107,5,13,0,1,363
107,5,8,0,2,106
107,5,12,7,2,47
107,5,3,2,4,52
107,5,8,4,7,16
108,4,4,7,3,92
108,4,1,9,7,14
108,4,12,3,2,3
108,4,12,9,8,9
109,5,10,13,6,31
109,5,1,13,3,28
109,5,6,11,4,277
109,5,12,3,4,160
109,5,10,6,6,152
110,6,9,2,6,26
110,6,8,7,5,94
110,6,4,12,5,156
110,6,6,11,1,36
110,6,4,2,2,190
110,6,11,8,5,110
111,6,11,6,5,68
111,6,13,3,2,20
111,6,4,1,7,19
111,6,5,1,3,151
111,6,10,2,7,123
111,6,9,13,2,54
112,7,5,3,1,269
112,7,7,11,7,48
112,7,7,8,6,18
112,7,1,9,6,21
112,7,2,8,2,35
112,7,2,10,1,144
112,7,5,3,1,24
113,7,0,12,7,205
113,7,0,9,3,14
113,7,10,11,5,243
113,7,9,0,6,14
113,7,6,4,7,71
113,7,3,1,1,65
113,7,4,1,4,42
114,3,1,5,7,70
114,3,10,2,2,88
114,3,2,0,8,44
115,4,2,13,3,78
115,4,3,7,4,35
115,4,6,2,8,198
115,4,8,9,5,7
116,4,1,7,2,66
116,4,12,6,8,174
116,4,7,5,3,8
116,4,6,7,2,106
117,6,13,6,3,166
117,6,1,5,2,9
117,6,5,11,6,28
117,6,10,9,2,162
117,6,3,5,4,12
117,6,11,12,7,55
118,8,9,7,7,128
118,8,0,5,6,10
118,8,11,13,2,43
118,8,4,11,3,79
118,8,10,11,8,46
118,8,6,9,3,2
118,8,5,11,3,60
118,8,8,13,2,130
119,6,0,1,3,18
119,6,7,13,3,168
119,6,9,5,8,10
119,6,11,13,5,8
119,6,6,7,2,54
119,6,11,4,6,8
120,5,10,13,1,14
120,5,13,8,3,34
120,5,13,1,7,215
120,5,12,2,6,33
120,5,12,2,7,5
121,3,0,9,6,25
121,3,3,7,2,61
121,3,3,11,7,494
122,4,3,12,5,65
122,4,4,5,7,65
122,4,11,4,7,19
122,4,11,6,4,22
123,8,12,2,6,200
123,8,0,10,4,197
123,8,8,2,3,48
123,8,7,1,5,322
123,8,12,10,8,103
123,8,5,6,4,114
123,8,8,7,5,437
123,8,6,1,4,6
124,3,11,13,8,33
124,3,1,5,6,30
124,3,8,7,6,113
125,9,4,10,4,832
125,9,3,13,4,10
125,9,12,5,2,37
125,9,12,7,2,28
125,9,2,6,6,137
125,9,0,1,3,29
125,9,0,10,1,48
125,9,6,11,4,127
125,9,12,7,4,51
126,7,13,6,1,58
126,7,9,5,1,4
126,7,8,10,4,3
126,7,13,9,2,70
126,7,12,13,7,20
126,7,8,4,7,22
126,7,7,10,8,108
127,6,11,2,6,84
127,6,9,10,1,59
127,6,10,12,8,74
127,6,0,5,2,59
127,6,0,5,5,69
127,6,5,2,8,259
128,2,4,10,2,84
128,2,3,13,6,317
129,6,10,9,4,14
129,6,6,13,4,107
129,6,12,2,1,209
129,6,4,0,7,141
129,6,1,5,7,25
129,6,0,12,7,46
130,5,4,3,7,9
130,5,12,0,6,25
130,5,4,1,3,27
130,5,6,0,5,79
130,5,4,10,6,32
131,4,3,13,7,49
131,4,6,11,6,40
131,4,12,1,5,95
131,4,1,13,2,27
132,2,12,0,1,12
132,2,3,7,2,140
133,8,8,1,7,139
133,8,12,4,4,17
133,8,8,7,4,90
133,8,2,4,5,175
133,8,7,9,6,168
133,8,11,2,1,25
133,8,3,10,6,14
133,8,0,9,1,22
134,4,10,8,8,3
134,4,4,13,3,174
134,4,3,6,8,35
134,4,3,2,4,23
135,6,6,4,8,104
135,6,5,6,1,50
135,6,6,3,8,5
135,6,3,10,4,45
135,6,13,9,7,14
135,6,12,5,4,52
136,7,3,0,3,12
136,7,5,8,5,58
136,7,1,4,2,353
136,7,8,7,6,461
136,7,7,13,2,24
136,7,9,11,3,166
136,7,0,4,3,21
137,8,10,9,8,1
137,8,10,6,4,15
137,8,12,9,4,184
137,8,0,13,8,132
137,8,6,7,1,45
137,8,6,10,2,7
137,8,4,12,7,328
137,8,5,11,2,14
138,4,5,4,6,28
138,4,4,6,4,230
138,4,3,12,6,47
138,4,12,3,1,8
139,5,8,5,2,10
139,5,0,11,6,577
139,5,10,7,3,38
139,5,2,11,2,84
139,5,10,11,3,271
140,8,0,13,6,30
140,8,13,2,4,47
140,8,8,3,5,10
140,8,7,6,8,320
140,8,3,10,1,92
140,8,0,10,5,93
140,8,3,12,8,15
140,8,2,1,1,310
141,4,3,10,1,50
141,4,5,6,3,372
141,4,12,11,8,18
141,4,3,2,8,67
142,6,11,12,8,28
142,6,11,4,3,48
142,6,9,4,4,8
142,6,8,2,3,20
142,6,10,0,8,69
142,6,10,9,4,177
143,6,0,4,3,116
143,6,9,3,7,10
143,6,5,7,3,66
143,6,3,2,1,7
143,6,8,1,3,3
143,6,3,4,7,180
144,6,2,12,6,180
144,6,8,10,8,107
144,6,0,8,2,58
144,6,9,0,6,45
144,6,11,3,4,126
144,6,12,6,1,174
145,5,6,11,1,17
145,5,13,11,5,74
145,5,4,6,1,1
145,5,0,10,1,22
145,5,11,6,1,108
146,6,8,12,4,5
146,6,8,0,7,30
146,6,0,3,2,246
146,6,3,10,6,31
146,6,1,13,6,75
146,6,5,9,4,9
147,4,3,2,7,30
147,4,13,5,4,219
147,4,1,2,5,24
147,4,10,5,7,54
148,5,5,8,3,314
148,5,6,7,5,81
148,5,7,8,6,46
148,5,1,0,4,31
148,5,5,4,1,21
149,2,7,13,3,18
149,2,4,2,8,95
150,4,10,9,5,91
150,4,6,11,6,61
150,4,1,5,4,107
150,4,11,4,4,194
151,4,13,4,4,38
151,4,5,0,3,41
151,4,12,3,8,144
151,4,11,2,7,109
152,5,1,13,4,272
152,5,2,7,7,155
152,5,13,11,5,39
152,5,1,11,2,238
152,5,13,3,3,15
153,2,10,4,2,110
153,2,3,9,1,26
154,6,12,6,5,202
154,6,10,2,7,370
154,6,9,11,4,3
154,6,1,6,5,38
154,6,8,10,2,73
154,6,12,5,1,53
155,7,1,3,2,23
155,7,7,9,3,90
155,7,10,3,7,41
155,7,7,1,4,207
155,7,8,7,7,22
155,7,3,13,1,472
155,7,7,3,4,1
156,7,4,2,2,231
156,7,3,13,3,25
156,7,13,5,7,4
156,7,8,1,6,66
156,7,4,3,3,13
156,7,10,0,4,42
156,7,13,0,4,75
157,6,8,6,7,9
157,6,11,12,1,48
157,6,5,12,4,71
157,6,7,0,5,121
157,6,13,1,3,53
157,6,12,2,4,6
158,5,12,6,8,77
158,5,6,12,6,79
158,5,13,0,7,26
158,5,11,6,3,39
158,5,9,5,2,93
159,3,10,3,3,32
159,3,13,8,8,114
159,3,11,12,3,43
160,4,7,4,1,40
160,4,11,10,1,66
160,4,8,13,5,12
160,4,11,2,3,233
161,2,4,9,1,32
161,2,10,13,7,42
162,2,10,5,2,28
162,2,8,4,3,130
163,5,1,9,4,8
163,5,6,3,7,111
163,5,6,8,5,106
163,5,12,6,2,70
163,5,8,1,1,243
164,2,4,6,6,215
164,2,0,8,5,221
165,5,5,7,3,53
165,5,7,9,8,86
165,5,5,11,6,273
165,5,6,0,8,12
165,5,13,9,8,38
166,6,6,9,8,60
166,6,0,1,7,6
166,6,2,13,7,178
166,6,5,6,1,56
166,6,12,8,5,118
166,6,4,10,8,6
167,7,8,13,3,71
167,7,9,4,5,119
167,7,2,4,6,23
167,7,9,5,5,315
167,7,7,2,5,61
167,7,1,2,7,7
167,7,8,12,6,79
168,4,8,6,6,95
168,4,11,13,1,101
168,4,13,0,7,65
168,4,12,11,1,71
169,9,9,2,1,138
169,9,8,3,3,51
169,9,12,4,4,123
169,9,5,10,6,300
169,9,10,2,8,43
169,9,0,10,5,34
169,9,2,5,3,49
169,9,8,6,8,48
169,9,9,1,2,29
170,4,7,13,4,44
170,4,1,3,7,48
170,4,2,8,3,360
170,4,5,0,8,97
171,2,4,8,3,32
171,2,10,7,8,22
172,3,5,10,1,166
172,3,5,13,2,77
172,3,13,10,8,170
173,8,10,7,8,25
173,8,5,6,1,25
173,8,7,8,8,76
173,8,2,5,3,259
173,8,0,13,6,51
173,8,9,8,8,220
173,8,8,6,3,143
173,8,5,13,2,82
174,5,3,1,7,87
174,5,8,10,1,53
174,5,10,13,5,2
174,5,4,3,7,65
174,5,1,4,2,132
175,7,3,10,6,35
175,7,11,5,5,116
175,7,1,11,7,164
175,7,6,4,4,32
175,7,13,6,7,289
175,7,3,12,8,55
175,7,6,3,5,21
176,2,4,13,2,103
176,2,7,8,5,27
177,6,6,12,2,21
177,6,11,2,1,81
177,6,6,12,3,76
177,6,11,1,6,12
177,6,11,13,5,168
177,6,12,1,4,17
178,4,8,3,2,17
178,4,1,10,8,4
178,4,3,4,8,40
178,4,9,6,3,109
179,3,10,11,8,71
179,3,13,4,5,11
179,3,1,11,3,122
180,8,1,7,1,42
180,8,6,11,5,447
180,8,11,2,5,44
180,8,7,11,5,8
180,8,8,13,5,139
180,8,0,12,2,26
180,8,7,5,3,54
180,8,8,10,7,13
181,7,5,12,1,16
181,7,9,2,2,81
181,7,0,2,5,114
181,7,12,5,7,8
181,7,11,5,5,110
181,7,13,4,7,242
181,7,10,12,6,26
182,4,11,8,5,97
182,4,8,2,4,62
182,4,11,0,1,245
182,4,5,11,5,46
183,7,4,13,3,149
183,7,13,3,1,47
183,7,6,13,3,415
183,7,2,4,3,59
183,7,1,3,4,21
183,7,7,8,6,11
183,7,10,3,5,330
184,3,2,1,1,128
184,3,13,0,7,184
184,3,11,5,7,145
185,3,4,7,6,221
185,3,3,9,1,131
185,3,12,0,1,72
186,6,6,5,3,57
186,6,10,12,2,2
186,6,7,1,3,168
186,6,3,10,7,60
186,6,5,8,3,4
186,6,8,12,3,71
187,8,2,4,3,89
187,8,7,11,3,108
187,8,6,8,2,14
187,8,0,13,8,83
187,8,4,12,5,6
187,8,0,1,5,24
187,8,8,3,7,33
187,8,8,7,3,89
188,4,10,9,7,93
188,4,3,9,1,111
188,4,12,1,5,39
188,4,6,13,1,1
189,8,1,12,1,136
189,8,6,3,1,143
189,8,7,11,7,80
189,8,4,10,6,46
189,8,12,9,4,110
189,8,7,2,4,53
189,8,13,2,4,3
189,8,10,1,1,21
190,6,13,10,7,49
190,6,5,7,4,38
190,6,13,3,1,122
190,6,2,9,5,33
190,6,12,10,4,312
190,6,1,0,6,21
191,7,10,1,2,245
191,7,5,6,6,32
191,7,6,13,8,77
191,7,0,4,5,157
191,7,13,12,6,18
191,7,8,13,1,53
191,7,7,4,8,78
192,9,13,10,1,43
192,9,13,10,5,154
192,9,12,6,2,52
192,9,9,2,4,10
192,9,10,4,2,40
192,9,7,4,7,44
192,9,6,13,6,202
192,9,10,11,5,39
192,9,5,3,8,16
193,8,9,3,8,25
193,8,4,8,6,180
193,8,6,1,7,14
193,8,9,0,5,158
193,8,10,12,2,97
193,8,12,11,2,24
193,8,11,4,3,17
193,8,12,9,3,36
195,7,9,7,3,113
195,7,5,1,6,48
195,7,4,13,7,35
195,7,6,13,7,79
195,7,8,5,5,54
195,7,5,0,8,334
195,7,0,5,8,51
196,3,7,1,1,21
196,3,10,6,1,43
196,3,0,9,2,54
197,3,7,6,5,30
197,3,9,10,1,49
197,3,13,0,2,35
198,3,2,5,5,93
198,3,12,3,5,205
198,3,9,3,5,2
199,6,7,12,3,128
199,6,12,5,1,15
199,6,11,12,3,94
199,6,3,2,2,20
199,6,7,1,3,37
199,6,12,11,6,112
200,4,9,6,6,24
200,4,9,2,3,17
200,4,12,11,5,9
200,4,10,5,5,97
201,8,7,5,7,71
201,8,4,7,7,101
201,8,12,0,8,65
201,8,12,1,6,157
201,8,6,10,1,33
201,8,5,2,1,73
201,8,10,6,5,86
201,8,10,6,1,90
202,6,11,1,3,81
202,6,4,0,5,72
202,6,2,1,7,21
202,6,6,10,4,241
202,6,1,8,6,169
202,6,7,2,2,92
203,6,12,2,8,148
203,6,2,3,2,35
203,6,11,3,8,77
203,6,12,0,6,7
203,6,1,5,7,115
203,6,13,0,7,184
204,4,2,6,2,34
204,4,11,13,1,43
204,4,10,13,8,27
204,4,1,11,8,4
205,5,3,0,1,20
205,5,4,10,3,22
205,5,13,3,7,165
205,5,7,13,1,11
205,5,1,11,5,419
206,6,13,0,6,51
206,6,2,3,8,36
206,6,4,12,4,153
206,6,10,11,1,2
206,6,2,7,7,148
206,6,12,11,3,8
208,3,6,2,8,54
208,3,8,7,4,113
208,3,1,3,1,134
209,6,9,6,2,241
209,6,11,7,6,67
209,6,1,0,5,27
209,6,2,10,7,15
209,6,10,12,2,34
209,6,4,3,7,74
210,5,0,7,4,30
210,5,7,12,1,28
210,5,9,5,1,18
210,5,0,8,1,177
210,5,11,3,2,245
211,3,3,6,7,118
211,3,12,7,6,11
211,3,0,11,6,225
212,5,8,9,1,76
212,5,7,5,3,33
212,5,9,7,5,11
212,5,7,4,1,24
212,5,10,8,4,102
213,9,7,5,8,41
213,9,9,6,3,185
213,9,6,9,1,21
213,9,7,1,6,46
213,9,6,1,4,78
213,9,5,8,1,256
213,9,7,3,3,20
213,9,12,5,3,57
213,9,2,11,2,23
214,5,11,6,8,117
214,5,5,7,2,33
214,5,8,9,2,171
214,5,9,8,6,117
214,5,7,1,3,1
215,6,2,12,3,2
215,6,5,7,8,98
215,6,1,5,2,52
215,6,10,4,5,10
215,6,4,10,7,6
215,6,9,11,6,7
216,8,3,11,1,5
216,8,11,10,8,32
216,8,6,5,7,95
216,8,3,9,6,109
216,8,5,9,3,16
216,8,8,6,2,74
216,8,9,1,6,121
216,8,4,11,8,32
217,5,5,2,7,210
217,5,2,9,8,32
217,5,13,5,3,74
217,5,5,7,1,18
217,5,9,0,4,26
218,5,8,10,6,190
218,5,4,8,2,129
218,5,7,10,5,80
218,5,0,10,8,8
218,5,0,12,4,52
219,4,1,8,1,24
219,4,6,5,4,163
219,4,6,1,6,76
219,4,4,3,8,218
220,9,10,5,7,11
220,9,2,1,2,7
220,9,5,8,8,174
220,9,13,6,7,138
220,9,0,13,8,39
220,9,11,8,8,167
220,9,8,2,4,2
220,9,11,10,3,124
220,9,0,2,7,39
221,11,11,2,6,80
221,11,13,4,3,3
221,11,7,4,1,338
221,11,6,12,7,43
221,11,13,6,7,24
221,11,1,12,1,102
221,11,11,2,7,46
221,11,1,2,8,12
221,11,10,13,3,103
221,11,12,6,8,52
221,11,11,3,8,53
222,7,12,1,3,14
222,7,1,0,1,22
222,7,13,9,5,56
222,7,11,6,5,7
222,7,5,6,7,168
222,7,5,2,7,37
222,7,10,12,3,24
223,7,10,3,7,72
223,7,12,9,6,12
223,7,12,3,4,8
223,7,10,7,3,20
223,7,1,5,2,104
223,7,1,10,2,43
223,7,0,10,5,6
224,10,12,2,1,40
224,10,2,3,5,72
224,10,0,8,7,384
224,10,3,9,1,34
224,10,8,5,8,10
224,10,4,3,1,17
224,10,1,4,6,145
224,10,10,13,4,254
224,10,12,6,4,10
224,10,4,0,8,29
225,1,12,11,2,49
226,4,4,1,4,33
226,4,1,13,4,152
226,4,8,11,4,177
226,4,9,1,2,247
227,8,10,12,3,236
227,8,0,10,1,92
227,8,3,8,7,10
227,8,6,3,8,33
227,8,0,5,1,106
227,8,3,1,7,136
227,8,7,6,3,187
227,8,4,9,6,27
228,4,6,9,4,42
228,4,9,6,3,218
228,4,13,2,1,134
228,4,4,7,2,151
229,8,0,1,7,9
229,8,9,5,8,6
229,8,1,10,6,94
229,8,1,8,3,124
229,8,9,2,8,58
229,8,5,11,1,49
229,8,9,8,1,123
229,8,7,4,4,57
230,6,10,0,5,363
230,6,12,5,1,119
230,6,4,11,6,44
230,6,2,10,5,1
230,6,5,10,7,58
230,6,9,8,1,49
231,6,1,8,3,24
231,6,13,4,2,308
231,6,3,11,1,50
231,6,3,11,2,37
231,6,7,2,6,19
231,6,0,5,6,64
232,6,5,2,7,27
232,6,4,9,3,39
232,6,5,11,4,24
232,6,3,9,4,49
232,6,7,3,7,78
232,6,4,0,7,294
233,3,7,6,1,10
233,3,11,10,1,121
233,3,7,13,2,60
234,5,5,8,2,69
234,5,13,12,1,25
234,5,1,2,8,34
234,5,13,10,1,43
234,5,1,11,3,5
235,4,2,12,2,36
235,4,4,8,2,155
235,4,5,8,8,89
235,4,3,6,1,161
236,3,3,8,1,135
236,3,13,12,6,57
236,3,8,1,4,162
237,3,4,1,1,77
237,3,7,10,2,179
237,3,4,5,5,279
238,1,5,6,2,97
239,2,4,3,4,43
239,2,8,7,7,5
240,8,7,11,1,131
240,8,10,5,2,14
240,8,8,13,1,143
240,8,4,1,3,128
240,8,12,6,4,56
240,8,7,6,1,103
240,8,0,3,3,57
240,8,2,1,6,68
241,5,12,4,2,4
241,5,3,13,6,263
241,5,5,6,3,345
241,5,10,2,5,110
241,5,8,5,7,63
242,2,4,13,4,62
242,2,12,3,1,45
243,7,6,13,8,157
243,7,8,1,7,106
243,7,11,3,3,92
243,7,1,9,3,38
243,7,0,2,7,66
243,7,13,7,2,209
243,7,1,2,6,29
244,3,5,9,6,37
244,3,12,6,4,52
244,3,3,8,4,93
245,3,8,4,2,4
245,3,7,1,5,49
245,3,7,5,7,30
246,1,1,9,8,39
247,5,11,5,2,93
247,5,6,1,1,14
247,5,5,4,3,44
247,5,0,13,6,124
247,5,2,0,4,14
248,6,0,2,4,226
248,6,9,3,8,27
248,6,13,2,2,44
248,6,9,5,1,27
248,6,10,7,3,6
248,6,6,7,2,72
249,7,6,7,7,12
249,7,2,0,2,102
249,7,4,5,5,114
249,7,10,0,1,10
249,7,7,2,7,93
249,7,0,11,4,5
249,7,12,5,4,144
250,4,12,2,8,59
250,4,7,1,5,74
250,4,7,1,6,332
250,4,0,12,7,116
251,6,2,13,2,30
251,6,5,13,1,45
251,6,4,10,2,26
251,6,1,0,8,56
251,6,0,13,4,7
251,6,13,1,5,9
252,3,10,11,4,220
252,3,10,11,8,85
252,3,9,11,2,17
253,4,11,6,1,22
253,4,9,0,2,54
253,4,2,8,6,48
253,4,9,11,3,104
254,7,8,6,7,153
254,7,2,1,1,169
254,7,8,4,6,76
254,7,13,6,7,153
254,7,9,0,7,10
254,7,9,5,4,48
254,7,5,3,8,53
255,5,2,11,6,23
255,5,11,6,1,1
255,5,10,2,8,118
255,5,9,0,3,123
255,5,9,6,8,11
256,3,1,8,7,46
256,3,4,7,3,189
256,3,2,5,8,108
257,2,9,6,4,58
257,2,1,6,1,27
258,2,12,10,3,40
258,2,11,0,1,20
259,3,12,9,7,24
259,3,3,7,3,92
259,3,6,5,8,66
260,5,0,11,6,55
260,5,13,5,6,58
260,5,6,1,6,17
260,5,9,5,4,75
260,5,2,7,1,45
261,8,3,7,1,24
261,8,8,11,3,19
261,8,2,9,7,99
261,8,9,3,7,19
261,8,3,12,6,75
261,8,4,7,5,88
261,8,2,9,7,67
261,8,13,2,1,97
262,2,8,11,5,122
262,2,9,10,3,195
263,2,1,12,5,147
263,2,10,5,2,147
264,10,12,13,7,81
264,10,2,4,2,80
264,10,4,8,1,18
264,10,3,8,7,42
264,10,11,3,8,25
264,10,7,6,4,55
264,10,1,3,6,38
264,10,0,8,5,108
264,10,1,10,1,7
264,10,6,4,2,16
265,4,1,12,2,81
265,4,1,5,5,28
265,4,9,8,2,213
265,4,11,1,2,70
266,3,10,8,3,93
266,3,13,8,1,84
266,3,5,2,8,64
267,6,2,12,5,14
267,6,8,13,7,104
267,6,13,2,8,183
267,6,10,0,6,200
267,6,2,11,7,15
267,6,6,7,4,35
268,7,4,3,1,128
268,7,7,0,7,46
268,7,12,0,8,20
268,7,8,4,1,32
268,7,12,0,5,19
268,7,8,10,7,45
268,7,13,11,4,25
269,2,6,12,3,118
269,2,0,2,2,10
270,4,0,3,7,25
270,4,11,7,8,77
270,4,13,0,8,24
270,4,6,12,5,22
271,2,7,8,8,94
271,2,11,13,8,6
272,2,7,12,4,158
272,2,11,1,4,23
273,4,6,0,2,335
273,4,12,11,6,20
273,4,7,8,4,45
273,4,6,0,6,25
274,11,6,9,1,39
274,11,7,4,4,29
274,11,4,11,3,125
274,11,9,2,4,284
274,11,2,12,2,33
274,11,4,9,4,27
274,11,6,7,1,64
274,11,1,0,4,206
274,11,3,6,6,22
274,11,1,3,4,151
274,11,10,6,8,137
275,5,0,2,7,74
275,5,5,7,5,108
275,5,5,3,3,28
275,5,3,9,4,17
275,5,12,5,7,24
276,6,4,6,8,8
276,6,2,1,6,60
276,6,6,12,5,65
276,6,4,9,2,99
276,6,7,1,2,66
276,6,12,8,7,177
277,6,13,12,6,119
277,6,5,4,4,15
277,6,2,7,4,88
277,6,4,3,3,197
277,6,8,0,6,52
277,6,10,0,4,110
278,6,10,4,6,28
278,6,0,11,7,21
278,6,9,0,5,131
278,6,8,9,1,20
278,6,3,7,5,28
278,6,9,2,6,65
279,5,7,1,1,40
279,5,1,0,1,50
279,5,7,6,3,106
279,5,12,11,7,165
279,5,3,8,3,128
280,4,2,12,6,82
280,4,3,7,1,37
280,4,3,5,8,20
280,4,6,5,4,58
281,9,12,2,2,39
281,9,9,12,4,180
281,9,7,4,4,1
281,9,4,5,3,143
281,9,8,3,4,156
281,9,9,13,3,96
281,9,8,2,8,28
281,9,3,5,2,39
281,9,0,3,8,91
282,2,0,9,1,36
282,2,6,1,5,44
283,4,1,9,2,17
283,4,0,1,6,20
283,4,1,2,6,24
283,4,12,9,8,20
284,8,10,0,5,29
284,8,2,11,7,45
284,8,7,1,1,51
284,8,0,13,6,40
284,8,12,6,8,17
284,8,10,4,5,29
284,8,5,12,7,135
284,8,8,2,3,130
285,5,6,5,6,19
285,5,5,12,3,50
285,5,4,12,7,17
285,5,7,8,4,5
285,5,10,5,6,38
286,8,7,10,3,229
286,8,8,2,5,4
286,8,13,8,2,11
286,8,10,9,2,49
286,8,8,2,3,28
286,8,11,13,6,19
286,8,3,10,6,62
286,8,4,12,8,39
287,3,5,10,2,7
287,3,6,4,3,15
287,3,13,6,2,15
288,3,10,1,2,104
288,3,2,13,1,43
288,3,2,10,1,45
289,5,11,5,8,78
289,5,2,7,2,5
289,5,10,13,3,441
289,5,12,13,5,86
289,5,6,7,8,15
290,6,11,5,2,18
290,6,4,6,4,59
290,6,0,4,4,150
290,6,6,2,1,39
290,6,10,5,5,16
290,6,13,6,6,208
291,3,10,9,3,24
291,3,6,10,7,44
291,3,3,12,1,17
292,7,0,7,4,95
292,7,12,0,4,44
292,7,4,2,6,193
292,7,1,7,3,82
292,7,6,8,8,11
292,7,0,5,8,26
292,7,4,5,8,26
293,2,1,13,1,80
293,2,8,7,5,139
294,3,1,3,2,18
294,3,7,10,3,22
294,3,10,3,1,75
295,5,12,1,3,141
295,5,8,10,1,268
295,5,0,1,6,4
295,5,6,4,4,117
295,5,1,6,5,220
296,6,5,1,7,106
296,6,1,13,3,89
296,6,3,4,7,154
296,6,6,13,8,30
296,6,8,4,8,119
296,6,6,4,1,171
297,5,5,1,7,158
297,5,11,6,5,158
297,5,7,8,8,3
297,5,1,13,8,77
297,5,9,1,5,35
298,4,12,5,3,11
298,4,3,12,5,2
298,4,2,8,5,177
298,4,10,2,7,153
299,5,13,6,8,91
299,5,10,7,4,2
299,5,6,4,3,104
299,5,2,1,4,74
299,5,1,12,8,56
300,8,13,9,4,15
300,8,6,7,1,18
300,8,11,6,2,36
300,8,12,7,1,134
300,8,8,10,2,59
300,8,13,5,8,44
300,8,8,11,6,19
300,8,7,5,7,122
301,4,11,2,6,132
301,4,0,9,8,39
301,4,7,4,8,46
301,4,10,5,2,257
302,3,6,13,5,243
302,3,8,7,2,112
302,3,2,12,8,53
303,4,6,0,1,126
303,4,6,4,7,112
303,4,9,0,3,44
303,4,12,11,4,3
304,1,12,0,8,1
305,6,11,8,5,42
305,6,7,6,4,35
305,6,4,7,4,63
305,6,5,11,2,2
305,6,10,1,8,167
305,6,13,12,1,23
306,8,4,8,5,177
306,8,6,5,7,40
306,8,8,13,5,118
306,8,7,12,3,93
306,8,5,4,4,65
306,8,8,10,5,103
306,8,12,3,6,109
306,8,10,9,2,245
307,5,1,2,5,139
307,5,13,4,5,56
307,5,5,8,6,48
307,5,4,10,6,4
307,5,0,3,6,30
308,5,13,9,1,20
308,5,13,9,8,5
308,5,0,13,7,47
308,5,9,7,7,59
308,5,2,7,3,120
309,5,5,12,7,171
309,5,7,0,3,16
309,5,12,0,7,131
309,5,10,9,4,173
309,5,7,5,5,54
310,3,7,11,8,30
310,3,1,8,1,115
310,3,6,1,6,11
311,3,2,10,1,509
311,3,13,5,1,145
311,3,0,8,7,70
312,3,2,12,1,26
312,3,5,0,3,80
312,3,6,11,1,80
314,3,11,1,5,36
314,3,1,7,4,64
314,3,1,4,6,155
315,5,12,2,3,35
315,5,9,11,4,14
315,5,2,9,8,176
315,5,1,4,4,76
315,5,10,5,1,79
316,10,8,12,8,368
316,10,12,13,7,133
316,10,0,4,7,17
316,10,11,8,4,23
316,10,0,9,2,18
316,10,12,8,1,28
316,10,12,0,1,6
316,10,8,5,5,157
316,10,7,5,3,9
316,10,9,1,4,44
317,5,9,11,2,179
317,5,6,1,5,161
317,5,13,4,5,494
317,5,12,5,7,274
317,5,12,10,4,503
318,3,3,8,1,214
318,3,6,12,2,143
318,3,1,4,1,6
319,7,13,0,2,120
319,7,2,6,1,48
319,7,11,7,5,185
319,7,0,13,8,39
319,7,13,4,8,42
319,7,10,0,7,11
319,7,7,3,5,28
320,1,10,7,4,29
321,5,4,2,1,74
321,5,4,5,5,161
321,5,5,12,4,129
321,5,5,2,3,17
321,5,12,13,2,129
322,4,13,5,2,2
322,4,0,12,3,56
322,4,11,2,5,142
322,4,5,6,1,23
323,9,10,11,2,61
323,9,2,3,1,44
323,9,3,5,5,32
323,9,4,2,6,25
323,9,6,13,2,63
323,9,12,10,6,84
323,9,1,9,2,94
323,9,5,8,6,111
323,9,10,7,5,74
324,6,8,4,2,45
324,6,13,4,3,184
324,6,5,0,6,84
324,6,1,10,5,104
324,6,2,12,5,129
324,6,3,11,4,63
325,8,4,2,1,120
325,8,1,10,2,6
325,8,6,1,3,9
325,8,2,0,5,27
325,8,8,0,2,101
325,8,2,5,6,290
325,8,11,4,4,84
325,8,6,3,6,4
326,8,4,6,4,15
326,8,13,10,3,170
326,8,3,4,4,322
326,8,6,13,4,38
326,8,2,1,6,4
326,8,3,11,5,258
326,8,7,10,6,123
326,8,3,8,6,40
327,13,11,13,7,169
327,13,2,8,8,25
327,13,1,11,2,70
327,13,1,2,5,140
327,13,9,8,1,2
327,13,13,8,8,54
327,13,11,7,1,366
327,13,1,2,7,459
327,13,12,3,8,81
327,13,11,8,3,146
327,13,1,13,6,34
327,13,10,1,4,9
327,13,11,10,8,48
328,4,4,6,2,46
328,4,7,13,8,342
328,4,4,2,7,85
328,4,7,1,1,198
329,3,1,12,7,16
329,3,11,13,3,99
329,3,4,5,3,91
330,3,5,11,6,63
330,3,0,9,4,66
330,3,4,0,8,118
331,5,7,0,7,22
331,5,3,0,1,54
331,5,3,10,8,108
331,5,9,2,8,13
331,5,6,13,6,45
332,3,8,0,5,202
332,3,10,3,6,13
332,3,13,0,3,40
333,7,1,3,3,116
333,7,11,0,3,36
333,7,3,9,1,4
333,7,6,0,5,273
333,7,0,13,2,348
333,7,0,4,3,488
333,7,4,9,1,5
334,3,10,6,2,32
334,3,2,4,5,132
334,3,12,4,6,199
335,9,8,13,7,5
335,9,6,8,5,50
335,9,10,9,2,65
335,9,3,8,7,15
335,9,4,5,6,77
335,9,9,7,4,29
335,9,6,10,8,49
335,9,5,3,5,2
335,9,13,2,4,172
336,3,8,11,8,80
336,3,10,13,4,171
336,3,3,13,3,29
337,6,7,12,3,230
337,6,8,12,4,144
337,6,9,5,6,85
337,6,5,9,2,46
337,6,2,4,4,261
337,6,9,10,4,18
338,12,11,3,8,1
338,12,6,8,6,74
338,12,0,6,4,12
338,12,8,12,8,41
338,12,2,12,3,15
338,12,5,10,7,113
338,12,1,2,5,13
338,12,2,7,7,30
338,12,1,10,5,377
338,12,3,1,4,386
338,12,11,3,2,243
338,12,5,13,4,152
339,8,13,9,8,173
339,8,10,13,1,154
339,8,13,4,2,18
339,8,1,12,6,199
339,8,2,9,8,40
339,8,10,3,2,556
339,8,1,8,6,10
339,8,5,8,5,88
340,5,8,1,2,98
340,5,13,11,2,84
340,5,4,12,3,214
340,5,5,3,1,206
340,5,2,6,5,209
341,4,2,7,3,103
341,4,6,11,3,69
341,4,12,8,5,156
341,4,8,0,2,23
342,3,7,11,2,19
342,3,11,13,7,156
342,3,13,11,1,56
343,4,0,2,6,95
343,4,2,13,8,300
343,4,9,8,6,187
343,4,1,7,3,133
344,11,10,2,4,2
344,11,13,7,5,289
344,11,6,7,1,330
344,11,10,13,8,44
344,11,5,6,2,7
344,11,4,13,2,118
344,11,4,10,7,86
344,11,0,2,2,42
344,11,13,3,1,229
344,11,11,7,2,28
344,11,2,10,3,45
345,4,5,7,8,17
345,4,13,0,6,57
345,4,7,2,6,4
345,4,4,9,6,128
347,10,9,7,2,4
347,10,6,3,4,139
347,10,0,4,8,176
347,10,6,1,1,32
347,10,6,12,7,7
347,10,0,11,1,113
347,10,6,11,8,1
347,10,13,3,2,112
347,10,10,8,7,102
347,10,0,5,3,49
348,2,3,0,2,253
348,2,8,13,7,145
349,5,0,8,7,12
349,5,9,13,6,46
349,5,9,3,7,41
349,5,9,3,3,20
349,5,13,12,4,105
350,5,9,13,6,42
350,5,1,6,5,97
350,5,12,7,8,90
350,5,2,10,5,60
350,5,1,4,5,85
351,6,7,13,6,142
351,6,9,10,8,107
351,6,6,11,1,105
351,6,8,4,5,40
351,6,13,4,5,89
351,6,12,11,4,131
352,5,5,6,4,292
352,5,12,5,2,33
352,5,0,10,7,137
352,5,8,9,3,257
352,5,3,10,5,214
353,8,3,0,5,78
353,8,12,10,7,8
353,8,7,10,1,153
353,8,12,4,7,113
353,8,0,5,3,65
353,8,8,12,5,284
353,8,11,1,3,284
353,8,2,10,7,13
354,6,8,12,2,126
354,6,12,1,7,175
354,6,0,3,4,98
354,6,8,0,7,262
354,6,1,5,8,59
354,6,12,10,2,9
355,3,9,7,6,147
355,3,10,13,4,50
355,3,2,0,5,17
356,3,8,10,6,7
356,3,2,1,6,148
356,3,1,0,7,102
357,2,11,9,8,144
357,2,9,5,4,112
358,7,12,2,7,141
358,7,2,13,3,134
358,7,1,9,3,17
358,7,10,0,5,16
358,7,12,13,1,25
358,7,6,1,5,83
358,7,11,5,1,79
359,2,0,9,3,13
359,2,11,13,7,213
360,3,3,12,5,176
360,3,4,5,5,22
360,3,1,8,7,63
361,11,8,0,7,3
361,11,2,9,8,62
361,11,6,10,1,107
361,11,4,3,7,32
361,11,2,10,7,142
361,11,1,11,5,154
361,11,6,13,8,103
361,11,6,9,8,51
361,11,12,4,8,86
361,11,7,11,6,46
361,11,3,0,5,3
362,6,9,12,3,24
362,6,6,10,6,2
362,6,9,0,8,11
362,6,10,8,4,235
362,6,7,6,6,259
362,6,13,11,8,257
363,6,9,1,6,85
363,6,0,4,1,36
363,6,2,10,1,159
363,6,1,2,5,66
363,6,10,13,5,3
363,6,10,7,7,1
364,5,9,0,4,175
364,5,7,1,6,117
364,5,11,13,1,250
364,5,1,9,2,149
364,5,2,11,1,99
365,6,9,4,8,32
365,6,2,8,3,160
365,6,5,6,1,117
365,6,6,0,2,31
365,6,9,5,6,51
365,6,2,6,5,51
366,4,9,8,5,16
366,4,0,9,1,115
366,4,3,10,2,139
366,4,5,10,1,12
367,7,7,9,6,24
367,7,8,0,4,95
367,7,10,2,1,18
367,7,7,6,8,15
367,7,1,5,5,75
367,7,2,10,4,6
367,7,3,10,2,23
368,6,9,12,8,6
368,6,5,1,8,229
368,6,3,1,5,54
368,6,11,4,4,398
368,6,6,11,6,43
368,6,4,5,1,37
369,3,12,4,7,81
369,3,13,6,3,211
369,3,3,2,8,20
370,5,1,9,3,275
370,5,5,3,1,153
370,5,6,8,6,213
370,5,7,11,7,37
370,5,2,7,4,99
371,7,10,7,5,258
371,7,3,5,8,28
371,7,6,12,4,70
371,7,5,12,1,24
371,7,4,12,5,84
371,7,13,0,5,267
371,7,0,6,3,79
372,5,4,6,3,165
372,5,4,8,1,201
372,5,2,8,5,36
372,5,9,6,2,80
372,5,13,3,4,3
373,7,2,7,6,9
373,7,8,0,4,23
373,7,10,5,5,224
373,7,8,2,2,4
373,7,12,10,4,170
373,7,4,7,6,35
373,7,8,1,6,168
374,6,7,10,1,39
374,6,11,10,1,84
374,6,6,3,3,54
374,6,4,12,5,3
374,6,2,5,3,70
374,6,4,8,3,86
375,5,13,1,3,80
375,5,3,6,4,131
375,5,12,7,3,24
375,5,10,2,8,179
375,5,2,5,8,51
376,4,5,6,5,54
376,4,4,13,5,15
376,4,5,9,6,53
376,4,2,1,1,289
377,4,11,12,3,189
377,4,7,1,6,132
377,4,7,3,2,97
377,4,11,1,7,244
378,5,4,5,2,46
378,5,0,1,2,123
378,5,12,1,4,323
378,5,4,1,4,63
378,5,1,4,2,37
379,9,0,4,4,101
379,9,5,11,7,42
379,9,11,4,3,345
379,9,11,2,2,5
379,9,7,5,2,175
379,9,9,8,8,39
379,9,4,0,1,45
379,9,5,12,2,98
379,9,13,12,8,35
380,1,8,3,8,24
381,3,1,2,7,154
381,3,1,4,7,6
381,3,10,4,7,5
382,4,8,11,2,2
382,4,6,7,1,107
382,4,0,12,2,159
382,4,11,10,3,140
383,8,11,13,3,37
383,8,9,4,7,117
383,8,11,10,2,29
383,8,3,0,6,271
383,8,2,12,3,13
383,8,10,13,8,11
383,8,13,4,4,9
383,8,10,11,8,30
384,3,12,7,3,31
384,3,3,8,1,1
384,3,10,9,8,71
385,2,1,11,5,27
385,2,10,8,4,460
386,2,2,9,3,154
386,2,2,9,4,44
387,4,8,13,5,66
387,4,13,1,4,84
387,4,2,10,6,55
387,4,3,7,5,253
388,1,2,12,8,139
389,5,6,3,6,61
389,5,12,4,7,128
389,5,6,8,7,181
389,5,3,5,1,60
389,5,7,4,2,99
390,4,9,13,8,77
390,4,4,9,7,79
390,4,3,9,6,97
390,4,11,7,3,27
391,6,9,4,7,38
391,6,0,12,6,163
391,6,8,9,1,19
391,6,7,10,7,562
391,6,1,8,3,115
391,6,12,1,2,42
392,3,11,0,5,123
392,3,1,7,6,10
392,3,10,0,1,79
393,9,11,13,3,11
393,9,11,3,6,163
393,9,2,1,3,5
393,9,6,11,1,16
393,9,12,7,3,515
393,9,0,11,8,46
393,9,1,3,5,155
393,9,1,3,1,8
393,9,9,2,2,133
394,6,10,9,2,267
394,6,10,7,7,169
394,6,6,8,3,6
394,6,8,1,5,34
394,6,11,4,8,11
394,6,7,4,5,36
395,5,12,0,3,103
395,5,11,3,1,241
395,5,0,4,1,28
395,5,13,2,5,5
395,5,10,11,1,76
396,1,7,3,7,77
397,5,7,2,4,147
397,5,4,10,1,60
397,5,11,7,8,16
397,5,9,3,8,57
397,5,12,13,7,13
398,1,0,3,2,1
399,6,2,7,8,99
399,6,10,9,5,102
399,6,10,12,1,26
399,6,10,12,3,47
399,6,3,12,3,112
399,6,13,2,6,93
400,7,10,8,6,277
400,7,0,7,8,115
400,7,0,1,6,63
400,7,7,9,7,133
400,7,4,7,6,198
400,7,0,5,1,4
400,7,0,2,6,22
401,1,11,8,2,8
402,6,1,5,2,142
402,6,3,11,1,152
402,6,9,4,7,79
402,6,12,3,8,230
402,6,10,7,2,42
402,6,11,12,5,133
403,8,12,9,3,146
403,8,0,8,2,69
403,8,13,2,4,36
403,8,7,11,2,42
403,8,1,4,1,111
403,8,5,2,4,47
403,8,1,13,7,30
403,8,3,8,5,147
404,3,2,0,8,3
404,3,6,8,4,42
404,3,8,1,7,124
405,2,1,8,7,155
405,2,7,12,4,40
406,3,8,2,5,24
406,3,0,1,4,162
406,3,7,9,4,100
407,3,2,3,1,14
407,3,8,2,8,321
407,3,6,3,4,85
408,1,0,2,5,97
409,11,5,11,5,29
409,11,6,1,8,49
409,11,12,7,1,46
409,11,3,1,3,17
409,11,8,6,3,97
409,11,8,1,5,47
409,11,11,5,8,56
409,11,11,5,8,4
409,11,3,4,5,74
409,11,0,6,5,166
409,11,9,4,7,60
410,7,9,11,3,30
410,7,12,11,7,48
410,7,3,12,6,26
410,7,3,10,1,127
410,7,9,6,1,134
410,7,6,9,4,15
410,7,9,11,3,26
411,5,9,0,2,50
411,5,10,2,6,98
411,5,5,4,5,91
411,5,8,2,7,25
411,5,10,1,4,284
412,3,1,11,7,42
412,3,3,12,3,53
412,3,0,6,2,41
413,1,1,13,8,115
414,6,0,13,7,21
414,6,9,5,5,204
414,6,7,10,4,125
414,6,8,11,8,47
414,6,4,11,5,69
414,6,5,12,1,45
415,4,9,10,8,49
415,4,11,7,7,121
415,4,1,8,5,22
415,4,4,6,6,40
416,7,10,1,4,74
416,7,12,6,1,358
416,7,10,5,1,212
416,7,2,13,5,113
416,7,13,0,7,36
416,7,9,13,2,32
416,7,2,12,5,5
417,8,12,0,6,11
417,8,6,11,5,32
417,8,6,0,7,89
417,8,12,5,5,280
417,8,7,9,3,103
417,8,12,9,6,2
417,8,5,7,8,34
417,8,8,10,1,3
418,7,1,12,6,44
418,7,5,12,6,17
418,7,10,6,5,20
418,7,12,6,3,8
418,7,1,11,4,25
418,7,12,8,5,108
418,7,13,9,1,45
419,4,11,5,6,142
419,4,4,7,3,278
419,4,7,13,5,87
419,4,3,1,1,9
420,3,5,11,3,18
420,3,5,0,8,50
420,3,11,7,6,14
421,4,8,4,2,136
421,4,8,10,6,101
421,4,6,13,7,4
421,4,10,6,5,93
422,6,4,9,3,174
422,6,8,6,1,23
422,6,12,4,8,70
422,6,7,0,6,272
422,6,4,10,6,67
422,6,2,1,5,184
423,4,10,4,7,153
423,4,7,3,3,2
423,4,8,0,5,150
423,4,9,3,8,6
424,3,2,10,6,52
424,3,11,7,1,134
424,3,8,5,8,71
425,3,10,3,3,14
425,3,7,9,8,40
425,3,5,11,1,27
426,4,2,7,3,7
426,4,10,9,7,178
426,4,0,2,1,236
426,4,5,10,1,37
427,10,10,9,2,42
427,10,0,1,1,103
427,10,2,6,8,150
427,10,3,0,4,132
427,10,5,10,8,58
427,10,2,13,6,22
427,10,9,5,5,31
427,10,11,13,6,61
427,10,9,1,6,193
427,10,13,10,5,196
428,5,12,5,3,254
428,5,8,5,3,25
428,5,12,7,6,17
428,5,0,12,3,190
428,5,13,9,4,135
429,12,2,8,6,24
429,12,12,11,1,66
429,12,8,9,1,54
429,12,4,12,3,121
429,12,13,2,7,215
429,12,2,6,5,100
429,12,11,8,1,58
429,12,3,11,3,43
429,12,10,11,2,82
429,12,7,13,7,18
429,12,12,6,8,43
429,12,8,11,1,70
430,11,9,2,3,152
430,11,7,5,1,9
430,11,3,4,6,120
430,11,2,11,2,27
430,11,3,8,4,6
430,11,6,12,7,44
430,11,12,8,4,110
430,11,1,13,2,449
430,11,0,2,2,84
430,11,5,6,2,253
430,11,11,2,4,14
431,9,13,12,6,9
431,9,4,0,2,18
431,9,7,9,1,142
431,9,0,13,7,46
431,9,13,7,2,278
431,9,3,5,6,69
431,9,9,10,3,7
431,9,6,8,4,278
431,9,11,12,1,33
432,1,13,1,5,79
433,9,9,12,2,207
433,9,5,0,1,22
433,9,13,0,4,189
433,9,12,5,3,53
433,9,2,0,6,73
433,9,0,2,7,1
433,9,9,10,3,57
433,9,4,0,4,56
433,9,9,13,6,10
434,2,7,11,2,5
434,2,6,13,2,88
435,6,5,13,8,3
435,6,12,7,3,4
435,6,3,7,4,8
435,6,6,5,7,83
435,6,2,1,5,50
435,6,12,8,6,55
436,7,1,8,3,29
436,7,10,1,3,35
436,7,9,4,6,82
436,7,3,7,7,48
436,7,3,10,5,56
436,7,1,7,6,20
436,7,9,8,3,7
437,2,13,0,3,58
437,2,10,4,2,27
438,5,9,11,6,64
438,5,11,8,1,39
438,5,3,2,6,161
438,5,9,1,8,14
438,5,8,13,8,20
439,3,4,0,7,29
439,3,11,0,7,99
439,3,7,9,2,32
440,5,1,11,7,91
440,5,4,12,3,36
440,5,1,6,2,60
440,5,3,10,7,154
440,5,9,7,1,65
441,5,3,0,3,40
441,5,5,1,5,26
441,5,13,3,6,21
441,5,3,13,4,226
441,5,10,1,8,195
442,2,8,11,8,84
442,2,1,9,7,52
443,5,12,7,6,182
443,5,13,1,7,20
443,5,13,3,5,11
443,5,1,8,3,88
443,5,5,3,3,30
444,3,11,12,6,30
444,3,12,10,5,36
444,3,13,11,8,230
445,6,5,12,1,19
445,6,7,4,3,49
445,6,10,3,6,279
445,6,11,2,5,149
445,6,12,0,8,67
445,6,4,7,7,81
446,7,12,13,1,87
446,7,0,5,7,144
446,7,2,11,6,102
446,7,5,12,6,61
446,7,4,12,6,185
446,7,4,2,4,59
446,7,9,6,4,34
447,5,7,8,7,5
447,5,4,3,6,13
447,5,11,9,1,48
447,5,0,6,6,66
447,5,3,11,8,1
448,3,8,11,4,102
448,3,6,8,7,222
448,3,6,13,2,81
449,9,1,0,7,260
449,9,8,13,6,151
449,9,11,2,5,513
449,9,12,2,8,120
449,9,4,9,8,725
449,9,2,9,4,63
449,9,4,10,4,22
449,9,1,0,6,255
449,9,13,11,2,85
450,2,9,0,2,55
450,2,8,4,3,120
451,5,10,8,2,61
451,5,5,1,7,38
451,5,9,8,1,124
451,5,8,10,8,131
451,5,0,10,8,20
452,3,7,4,1,62
452,3,0,8,5,178
452,3,0,6,1,24
453,3,2,8,6,23
453,3,6,9,7,18
453,3,0,13,6,25
454,6,7,6,1,102
454,6,4,0,2,32
454,6,1,4,1,212
454,6,9,8,8,325
454,6,1,7,1,127
454,6,12,6,3,101
455,1,2,11,1,80
456,4,5,8,2,324
456,4,7,13,2,56
456,4,12,9,1,82
456,4,0,11,5,9
457,5,6,11,2,77
457,5,6,7,3,13
457,5,6,10,6,73
457,5,2,4,5,62
457,5,7,3,4,179
458,5,8,6,6,57
458,5,3,11,3,362
458,5,2,12,6,65
458,5,2,11,4,108
458,5,3,9,3,42
459,5,0,1,3,29
459,5,0,5,7,5
459,5,13,12,8,80
459,5,5,7,1,31
459,5,9,10,3,208
460,4,0,12,5,45
460,4,5,12,7,155
460,4,10,2,1,72
460,4,12,11,1,13
461,3,8,2,4,34
461,3,2,10,7,139
461,3,2,7,7,47
462,4,3,10,4,36
462,4,3,1,2,67
462,4,1,7,1,218
462,4,13,6,8,107
463,1,10,7,7,140
464,3,2,11,4,103
464,3,13,9,7,74
464,3,5,7,8,65
465,6,11,8,7,9
465,6,10,9,1,52
465,6,9,5,1,100
465,6,2,1,8,75
465,6,11,3,4,60
465,6,9,10,4,4
466,4,10,8,6,142
466,4,2,6,6,18
466,4,8,1,6,103
466,4,2,10,2,101
467,6,10,5,3,14
467,6,4,0,7,41
467,6,9,6,7,347
467,6,1,10,4,68
467,6,10,7,2,48
467,6,5,6,6,71
468,6,2,11,1,103
468,6,0,6,1,8
468,6,0,5,4,268
468,6,0,9,5,198
468,6,12,6,7,102
468,6,7,6,3,70
469,2,8,11,5,9
469,2,4,5,1,166
470,4,11,3,1,21
470,4,5,4,3,27
470,4,4,6,3,80
470,4,4,12,8,188
471,5,0,13,4,46
471,5,3,4,5,158
471,5,0,7,5,61
471,5,6,13,7,46
471,5,11,13,1,187
472,8,10,12,6,15
472,8,5,10,6,117
472,8,9,4,7,74
472,8,2,12,6,112
472,8,6,13,5,22
472,8,6,1,1,3
472,8,4,1,5,20
472,8,4,13,1,19
473,6,3,9,5,35
473,6,6,0,3,1
473,6,6,8,7,88
473,6,2,10,5,80
473,6,9,6,1,179
473,6,12,0,4,50
474,5,12,3,2,33
474,5,12,3,6,8
474,5,2,10,5,84
474,5,0,11,8,1
474,5,8,9,7,43
475,7,1,6,5,5
475,7,1,4,1,54
475,7,5,9,5,148
475,7,2,3,3,153
475,7,11,3,4,77
475,7,8,12,8,134
475,7,7,9,6,44
476,8,0,5,4,94
476,8,9,7,6,39
476,8,1,6,8,39
476,8,7,8,7,49
476,8,2,0,2,168
476,8,12,1,6,40
476,8,0,2,1,10
476,8,7,8,1,180
477,6,9,7,8,192
477,6,9,12,3,69
477,6,8,2,2,45
477,6,12,6,8,6
477,6,6,10,5,11
477,6,5,7,1,130
478,2,2,11,1,100
478,2,2,12,2,66
479,2,2,10,6,12
479,2,13,9,2,189
480,4,11,0,7,64
480,4,11,12,5,128
480,4,8,3,3,20
480,4,9,8,1,90
481,5,0,5,8,203
481,5,2,0,1,47
481,5,4,1,5,13
481,5,3,5,4,2
481,5,0,10,4,58
482,3,13,12,6,71
482,3,6,11,8,44
482,3,5,4,6,35
483,9,1,3,8,193
483,9,10,12,2,72
483,9,5,1,7,132
483,9,2,11,7,12
483,9,13,7,3,78
483,9,4,1,2,62
483,9,9,10,3,56
483,9,8,9,4,130
483,9,13,8,6,16
484,5,3,8,6,93
484,5,7,5,7,148
484,5,11,5,7,71
484,5,0,11,6,11
484,5,0,11,1,113
485,1,11,3,2,73
486,2,2,3,8,104
486,2,13,12,4,190
487,12,2,13,4,111
487,12,6,12,4,110
487,12,11,9,2,33
487,12,8,5,1,27
487,12,9,13,3,99
487,12,13,1,5,40
487,12,7,3,6,15
487,12,12,4,1,330
487,12,1,3,8,188
487,12,13,0,4,18
487,12,5,0,7,291
487,12,1,11,1,120
488,3,9,11,3,3
488,3,3,4,7,76
488,3,3,7,5,112
489,5,8,9,8,112
489,5,10,12,8,58
489,5,2,0,1,22
489,5,7,8,7,138
489,5,3,13,1,115
490,2,12,1,3,31
490,2,8,7,8,51
491,5,6,1,8,65
491,5,10,5,6,37
491,5,12,8,7,9
491,5,4,10,1,20
491,5,9,0,4,259
492,2,4,2,1,94
492,2,5,13,3,130
493,4,12,10,8,140
493,4,0,11,7,34
493,4,4,8,3,40
493,4,13,8,5,400
494,3,2,5,6,76
494,3,5,0,2,104
494,3,3,2,6,85
495,3,1,13,6,49
495,3,2,7,3,110
495,3,7,10,4,70
496,5,2,4,7,42
496,5,0,3,6,29
496,5,9,7,1,164
496,5,7,0,4,69
496,5,8,13,7,53
497,3,1,10,1,57
497,3,9,5,3,46
497,3,11,0,5,38
498,3,2,8,7,75
498,3,2,1,4,74
498,3,8,10,4,73
499,5,0,10,3,46
499,5,2,13,3,77
499,5,8,6,7,51
499,5,6,3,8,65
499,5,13,12,4,6
500,2,10,5,5,130
500,2,10,6,2,145
501,7,3,7,1,63
501,7,0,1,4,45
501,7,10,3,1,1
501,7,5,7,5,68
501,7,10,7,2,29
501,7,2,3,7,405
501,7,1,11,6,38
502,6,11,9,2,235
502,6,12,7,2,56
502,6,9,2,4,126
502,6,13,0,4,242
502,6,6,10,6,61
502,6,8,3,3,7
503,3,11,0,5,11
503,3,10,9,1,112
503,3,10,6,4,32
504,7,7,13,4,37
504,7,3,0,4,47
504,7,8,12,3,47
504,7,1,5,3,163
504,7,1,8,7,128
504,7,1,9,1,70
504,7,8,1,4,3
505,4,4,12,4,565
505,4,3,0,3,46
505,4,9,4,8,15
505,4,7,1,3,132
506,6,7,5,1,160
506,6,1,4,8,22
506,6,8,10,2,179
506,6,5,0,4,38
506,6,3,1,5,1
506,6,13,12,6,40
507,7,12,4,6,240
507,7,7,11,8,24
507,7,3,1,6,384
507,7,7,13,4,317
507,7,8,9,8,86
507,7,12,2,2,111
507,7,2,0,5,116
508,3,8,3,3,19
508,3,2,7,2,104
508,3,7,13,3,17
509,5,1,5,5,139
509,5,0,12,1,88
509,5,11,5,2,168
509,5,4,12,4,23
509,5,12,5,8,233
510,8,0,1,3,19
510,8,10,4,8,14
510,8,10,6,3,67
510,8,11,1,5,129
510,8,7,2,5,62
510,8,13,0,5,89
510,8,12,11,3,205
510,8,5,8,1,47
511,2,7,8,1,16
511,2,6,11,4,37
512,8,3,2,3,1
512,8,4,3,4,70
512,8,11,13,4,24
512,8,0,10,6,18
512,8,8,9,6,31
512,8,8,13,2,40
512,8,0,11,6,133
512,8,10,2,3,54
513,6,9,12,1,157
513,6,3,6,8,13
513,6,7,0,6,23
513,6,8,12,4,33
513,6,11,12,1,88
513,6,0,11,5,16
514,9,2,0,1,6
514,9,5,10,7,182
514,9,6,10,7,111
514,9,0,2,4,104
514,9,12,8,5,15
514,9,3,12,7,114
514,9,0,6,2,259
514,9,10,2,3,97
514,9,12,11,7,64
515,7,11,4,7,145
515,7,7,12,7,180
515,7,4,8,1,63
515,7,9,7,7,196
515,7,0,1,6,1
515,7,13,2,2,151
515,7,5,7,1,18
516,6,13,4,7,2
516,6,4,11,8,1
516,6,13,12,8,39
516,6,0,3,1,109
516,6,0,4,2,58
516,6,0,7,7,111
517,5,5,4,2,22
517,5,13,2,6,9
517,5,9,4,2,38
517,5,12,5,6,86
517,5,6,7,2,16
518,3,13,0,3,33
518,3,2,5,2,104
518,3,9,2,7,106
519,5,12,10,7,73
519,5,6,11,2,93
519,5,6,2,6,166
519,5,8,13,2,247
519,5,8,11,4,120
520,2,11,1,6,123
520,2,6,0,7,119
521,4,8,4,6,63
521,4,5,4,8,64
521,4,6,4,7,16
521,4,6,1,1,54
522,4,4,1,7,6
522,4,4,7,8,63
522,4,12,11,2,11
522,4,8,1,8,64
523,5,13,3,3,174
523,5,8,13,2,32
523,5,9,5,2,70
523,5,2,1,2,1
523,5,0,9,5,108
524,7,2,12,6,238
524,7,10,6,5,15
524,7,9,3,8,1
524,7,3,5,3,12
524,7,12,4,6,36
524,7,13,11,4,88
524,7,12,5,5,122
525,4,6,7,6,8
525,4,9,4,4,115
525,4,12,7,2,38
525,4,7,10,1,140
526,5,4,11,5,55
526,5,7,3,8,15
526,5,5,0,1,73
526,5,11,2,4,140
526,5,5,8,3,2
527,7,11,0,5,195
527,7,8,7,5,69
527,7,12,11,3,45
527,7,11,12,2,106
527,7,9,6,7,104
527,7,6,1,2,41
527,7,0,5,3,15
528,6,13,12,7,8
528,6,5,0,2,109
528,6,5,8,7,16
528,6,13,12,8,163
528,6,12,7,8,215
528,6,9,8,4,39
529,8,6,9,5,8
529,8,3,1,7,32
529,8,13,9,5,166
529,8,1,8,1,37
529,8,13,4,8,189
529,8,11,7,3,61
529,8,0,1,2,3
529,8,12,1,3,22
530,4,3,6,3,24
530,4,2,4,3,56
530,4,2,11,5,10
530,4,6,0,2,180
531,4,0,2,7,85
531,4,12,11,4,7
531,4,5,13,5,55
531,4,13,10,2,17
532,3,6,5,8,58
532,3,9,2,5,3
532,3,2,5,4,77
533,1,8,9,6,226
534,2,3,1,3,101
534,2,6,2,8,207
535,4,3,6,4,18
535,4,12,0,6,56
535,4,8,13,6,233
535,4,2,9,1,48
536,7,11,8,1,20
536,7,11,6,4,9
536,7,6,1,7,78
536,7,0,4,4,142
536,7,10,11,6,45
536,7,11,13,4,58
536,7,8,10,7,3
537,6,6,1,3,65
537,6,2,1,8,178
537,6,8,7,1,105
537,6,12,8,6,43
537,6,0,6,2,193
537,6,10,3,6,327
538,2,4,7,6,1
538,2,8,12,7,38
539,5,9,11,8,317
539,5,3,7,1,305
539,5,2,11,8,84
539,5,13,5,7,33
539,5,8,6,7,34
540,7,5,12,2,1
540,7,4,1,4,208
540,7,11,12,8,118
540,7,13,3,2,19
540,7,2,7,7,54
540,7,3,13,5,14
540,7,11,3,2,123
541,5,5,2,5,11
541,5,3,11,1,6
541,5,7,10,6,19
541,5,7,10,8,95
541,5,10,3,1,18
542,10,11,3,8,47
542,10,8,4,2,36
542,10,5,6,1,89
542,10,13,6,7,250
542,10,12,11,5,91
542,10,13,6,3,56
542,10,12,3,7,221
542,10,6,5,2,29
542,10,10,3,1,268
542,10,5,4,7,24
543,7,2,11,6,75
543,7,9,2,1,153
543,7,0,12,5,53
543,7,2,4,7,302
543,7,6,9,1,65
543,7,7,11,8,120
543,7,9,1,8,157
544,1,0,12,1,18
545,8,6,11,1,54
545,8,7,3,2,361
545,8,13,3,7,70
545,8,5,10,7,15
545,8,3,8,3,17
545,8,13,4,8,164
545,8,7,1,1,10
545,8,1,8,7,96
546,2,13,2,2,286
546,2,4,9,1,151
547,4,13,2,5,131
547,4,3,9,1,35
547,4,4,10,6,16
547,4,2,8,4,70
548,2,7,11,7,1
548,2,13,1,8,76
549,5,4,0,2,40
549,5,1,11,2,70
549,5,5,11,6,100
549,5,0,5,5,234
549,5,8,13,7,74
550,8,1,7,2,62
550,8,11,5,4,49
550,8,3,11,8,21
550,8,1,7,8,26
550,8,12,5,8,33
550,8,4,5,3,465
550,8,11,4,3,43
550,8,1,2,1,88
551,8,2,8,8,6
551,8,12,1,4,19
551,8,12,2,5,49
551,8,3,5,5,87
551,8,10,4,5,124
551,8,3,10,1,39
551,8,2,12,8,93
551,8,7,13,4,2
552,7,2,1,7,95
552,7,1,6,1,56
552,7,0,12,3,45
552,7,9,6,8,82
552,7,2,6,1,5
552,7,5,10,5,72
552,7,9,1,2,38
553,4,10,9,6,35
553,4,3,10,7,31
553,4,0,12,4,43
553,4,3,6,6,104
554,6,1,12,3,37
554,6,1,10,3,2
554,6,7,5,2,68
554,6,5,4,8,266
554,6,11,12,6,108
554,6,4,3,6,62
555,3,10,8,7,57
555,3,13,6,4,15
555,3,11,12,6,70
556,7,10,4,7,16
556,7,5,7,4,13
556,7,7,4,6,16
556,7,6,11,2,44
556,7,0,5,8,39
556,7,3,10,2,218
556,7,10,12,8,46
557,7,8,1,6,38
557,7,9,1,2,199
557,7,7,6,8,5
557,7,7,3,5,147
557,7,3,12,8,93
557,7,4,0,8,34
557,7,6,8,6,170
558,6,7,10,5,43
558,6,13,2,8,65
558,6,10,9,5,250
558,6,6,10,2,80
558,6,8,10,7,26
558,6,0,10,5,74
559,2,3,10,2,123
559,2,12,5,5,135
560,5,4,11,2,75
560,5,10,0,7,283
560,5,10,9,1,16
560,5,10,0,4,48
560,5,12,0,6,68
561,6,6,5,7,131
561,6,6,3,4,108
561,6,7,11,4,36
561,6,1,7,7,93
561,6,2,4,6,187
561,6,7,5,2,136
562,3,12,6,7,46
562,3,10,11,3,8
562,3,13,5,1,18
563,4,8,13,7,209
563,4,9,0,7,24
563,4,13,3,5,173
563,4,12,1,3,193
564,6,0,12,5,181
564,6,3,0,8,91
564,6,5,11,5,4
564,6,1,8,4,298
564,6,10,8,3,23
564,6,7,3,3,28
565,4,13,1,2,453
565,4,0,6,8,15
565,4,4,3,5,80
565,4,2,1,3,113
566,3,9,6,6,11
566,3,12,13,2,68
566,3,6,5,8,3
567,9,9,1,2,229
567,9,5,13,4,55
567,9,10,0,8,81
567,9,8,13,4,150
567,9,9,12,5,5
567,9,8,1,7,142
567,9,13,12,5,24
567,9,1,13,5,140
567,9,11,3,3,23
568,6,5,2,8,50
568,6,6,1,6,33
568,6,12,8,8,73
568,6,1,6,3,53
568,6,10,4,1,24
568,6,6,13,3,45
569,4,12,0,8,312
569,4,8,4,4,91
569,4,8,13,7,37
569,4,8,10,6,61
570,6,0,12,8,196
570,6,13,8,3,39
570,6,6,10,2,23
570,6,6,10,5,190
570,6,9,5,5,48
570,6,1,7,2,42
571,5,5,7,6,72
571,5,5,2,8,224
571,5,5,10,5,279
571,5,10,9,4,102
571,5,6,11,8,43
572,4,1,10,8,18
572,4,10,2,6,15
572,4,0,9,6,64
572,4,8,3,6,357
573,6,4,5,1,135
573,6,2,3,6,186
573,6,13,4,6,119
573,6,1,2,3,4
573,6,4,7,7,12
573,6,6,13,2,90
574,4,2,3,1,7
574,4,1,10,1,13
574,4,13,4,8,27
574,4,5,8,6,10
575,5,4,10,6,178
575,5,5,13,6,179
575,5,7,2,1,46
575,5,0,3,6,97
575,5,10,4,7,32
576,5,13,4,8,134
576,5,1,9,8,84
576,5,1,5,6,119
576,5,3,5,1,406
576,5,12,6,2,15
577,5,4,1,4,105
577,5,0,9,6,8
577,5,6,2,2,15
577,5,9,10,4,138
577,5,13,2,2,40
578,8,6,2,5,50
578,8,12,4,8,11
578,8,12,11,7,169
578,8,5,9,8,72
578,8,13,2,4,43
578,8,4,1,4,62
578,8,0,8,1,69
578,8,1,8,6,43
579,3,0,4,5,10
579,3,4,11,5,199
579,3,12,10,2,66
580,5,3,12,8,107
580,5,12,10,8,23
580,5,3,1,4,82
580,5,0,7,4,20
580,5,10,4,5,79
581,5,5,8,7,76
581,5,11,5,3,138
581,5,10,3,8,277
581,5,11,1,4,46
581,5,4,13,2,1
582,6,1,5,8,30
582,6,9,12,1,25
582,6,13,4,7,34
582,6,9,0,7,41
582,6,11,6,2,67
582,6,5,13,4,91
583,5,13,2,7,53
583,5,13,8,6,56
583,5,9,1,4,153
583,5,6,7,5,41
583,5,3,9,1,55
584,8,10,1,8,52
584,8,0,13,3,22
584,8,6,1,3,213
584,8,1,11,2,7
584,8,13,1,7,32
584,8,12,3,8,14
584,8,11,13,5,85
584,8,10,6,6,68
585,10,4,3,5,200
585,10,0,3,2,255
585,10,10,5,8,152
585,10,10,4,2,40
585,10,13,7,6,3
585,10,9,12,8,27
585,10,11,3,4,151
585,10,5,11,8,78
585,10,6,10,2,193
585,10,11,12,4,14
586,9,2,9,5,127
586,9,0,8,6,41
586,9,4,8,1,311
586,9,3,11,2,39
586,9,0,10,3,350
586,9,4,1,3,36
586,9,12,1,6,9
586,9,13,0,7,69
586,9,6,8,2,15
587,4,2,6,7,31
587,4,12,8,1,133
587,4,4,1,6,88
587,4,13,3,7,45
588,5,5,7,8,62
588,5,2,8,3,12
588,5,2,7,5,65
588,5,10,11,2,299
588,5,9,4,3,2
589,5,12,6,3,237
589,5,7,2,8,126
589,5,7,3,8,89
589,5,7,12,4,197
589,5,8,3,2,90
590,3,10,12,6,306
590,3,9,10,7,94
590,3,5,8,3,58
591,6,2,13,5,34
591,6,0,8,6,63
591,6,4,13,2,286
591,6,4,0,6,7
591,6,1,12,8,72
591,6,11,13,8,41
592,5,1,4,4,85
592,5,7,6,3,288
592,5,8,2,8,124
592,5,12,6,7,40
592,5,10,13,3,21
593,3,4,8,1,67
593,3,6,0,8,31
593,3,9,11,2,172
594,6,12,10,7,71
594,6,8,4,7,71
594,6,1,13,3,363
594,6,12,8,1,5
594,6,13,10,3,184
594,6,6,1,7,27
595,4,2,1,5,115
595,4,8,3,7,213
595,4,5,11,5,9
595,4,8,12,5,37
596,7,0,10,4,11
596,7,3,12,2,86
596,7,4,3,6,64
596,7,4,8,3,140
596,7,12,5,3,45
596,7,9,0,2,132
596,7,12,8,3,371
597,6,3,6,2,119
597,6,9,8,3,91
597,6,12,13,6,57
597,6,7,8,6,67
597,6,12,6,3,48
597,6,0,8,1,164
598,4,11,8,3,175
598,4,7,10,8,31
598,4,12,3,8,121
598,4,5,1,6,11
599,4,10,9,5,222
599,4,3,12,8,143
599,4,10,8,5,33
599,4,9,5,4,5
600,4,2,5,1,67
600,4,7,11,6,13
600,4,13,6,8,16
600,4,12,3,7,149
601,10,12,11,8,41
601,10,8,12,1,96
601,10,9,7,7,114
601,10,11,3,1,47
601,10,2,1,2,61
601,10,13,1,2,8
601,10,3,9,1,32
601,10,0,6,7,56
601,10,3,4,1,36
601,10,1,0,4,8
602,7,0,2,6,185
602,7,12,0,1,14
602,7,7,9,8,45
602,7,11,4,5,75
602,7,10,5,5,11
602,7,0,3,8,64
602,7,12,13,1,6
603,4,10,3,1,33
603,4,13,4,8,26
603,4,1,13,1,24
603,4,6,10,2,159
604,5,8,0,1,246
604,5,7,11,1,192
604,5,3,5,7,43
604,5,7,3,7,12
604,5,3,5,7,2
605,3,5,4,3,122
605,3,13,12,2,48
605,3,5,0,6,72
606,7,9,8,5,141
606,7,9,3,5,184
606,7,10,8,7,20
606,7,3,6,4,7
606,7,13,0,5,84
606,7,9,5,5,99
606,7,6,8,6,128
607,3,12,3,3,51
607,3,8,9,1,11
607,3,9,8,2,136
608,3,2,9,4,31
608,3,7,10,3,34
608,3,13,5,8,81
609,2,0,2,5,91
609,2,0,12,1,14
610,2,10,12,7,19
610,2,8,6,1,93
611,2,0,2,4,163
611,2,4,5,4,137
612,5,13,0,1,16
612,5,3,12,1,102
612,5,9,8,3,80
612,5,12,11,5,113
612,5,11,5,6,33
613,4,12,5,7,61
613,4,5,2,3,85
613,4,9,8,8,19
613,4,2,9,4,19
614,6,7,6,1,29
614,6,11,10,6,161
614,6,3,5,6,226
614,6,0,9,4,349
614,6,5,8,7,7
614,6,7,4,4,364
615,7,8,4,6,94
615,7,3,4,4,106
615,7,11,5,5,129
615,7,7,11,7,34
615,7,0,13,7,78
615,7,0,9,8,31
615,7,1,0,7,15
616,7,13,3,4,16
616,7,5,12,4,72
616,7,3,13,6,56
616,7,9,11,6,369
616,7,5,0,7,24
616,7,1,4,7,42
616,7,7,0,4,224
617,4,13,9,4,94
617,4,1,3,2,86
617,4,9,5,7,42
617,4,5,8,8,6
618,1,9,11,2,77
619,8,4,5,5,1
619,8,3,9,2,11
619,8,8,2,4,79
619,8,1,7,1,37
619,8,12,6,8,409
619,8,0,9,3,29
619,8,12,9,6,37
619,8,0,5,1,14
620,2,6,0,5,54
620,2,3,7,6,110
621,7,2,13,1,276
621,7,3,1,7,9
621,7,9,3,4,23
621,7,4,0,2,52
621,7,4,11,4,3
621,7,7,6,4,9
621,7,0,2,6,121
622,4,11,6,3,27
622,4,8,5,5,91
622,4,8,5,4,22
622,4,10,12,1,120
623,5,7,3,3,134
623,5,10,13,5,242
623,5,1,13,4,32
623,5,13,5,2,11
623,5,9,1,5,25
624,7,9,4,5,41
624,7,0,9,5,16
624,7,5,11,3,247
624,7,7,4,8,76
624,7,5,8,8,12
624,7,1,2,8,216
624,7,12,2,1,49
625,5,4,11,2,66
625,5,6,4,1,32
625,5,4,9,4,59
625,5,8,9,1,94
625,5,10,11,8,85
626,8,2,11,2,27
626,8,1,7,6,96
626,8,9,11,8,116
626,8,13,9,8,122
626,8,0,2,7,20
626,8,7,4,6,134
626,8,1,0,6,42
626,8,6,12,5,65
627,6,4,5,5,303
627,6,4,7,5,70
627,6,1,2,1,16
627,6,13,11,1,154
627,6,0,1,3,34
627,6,2,7,3,30
628,9,13,8,7,3
628,9,4,5,8,192
628,9,4,1,7,86
628,9,12,8,2,43
628,9,0,1,3,11
628,9,12,6,7,20
628,9,4,7,4,2
628,9,12,4,1,96
628,9,0,13,5,71
629,4,9,6,3,34
629,4,6,9,8,150
629,4,2,13,4,65
629,4,1,10,1,116
630,11,4,2,6,63
630,11,9,4,1,90
630,11,3,7,2,29
630,11,0,2,7,112
630,11,3,2,1,170
630,11,4,0,5,34
630,11,10,7,7,13
630,11,2,0,6,43
630,11,10,13,3,83
630,11,5,4,5,196
630,11,12,6,4,45
631,5,5,3,6,25
631,5,0,9,7,290
631,5,8,13,3,357
631,5,2,12,4,45
631,5,13,5,6,56
632,5,11,6,1,211
632,5,8,11,5,109
632,5,7,1,2,18
632,5,5,13,7,138
632,5,8,11,3,27
633,6,9,5,5,157
633,6,5,8,2,26
633,6,8,7,4,72
633,6,1,8,5,37
633,6,2,13,7,72
633,6,2,5,7,4
634,6,9,8,1,31
634,6,4,13,5,54
634,6,2,3,1,179
634,6,10,3,2,235
634,6,11,2,3,6
634,6,13,12,8,8
635,5,2,0,5,51
635,5,3,10,1,62
635,5,8,0,6,231
635,5,12,13,6,96
635,5,0,6,5,42
636,5,6,8,6,333
636,5,3,9,6,42
636,5,4,0,7,26
636,5,1,2,8,18
636,5,9,6,4,1
637,3,1,7,4,113
637,3,10,4,3,238
637,3,2,0,8,89
638,5,3,11,8,32
638,5,10,3,3,31
638,5,12,5,6,31
638,5,5,1,1,208
638,5,11,2,3,69
639,3,2,6,2,173
639,3,12,1,7,104
639,3,0,6,8,16
640,3,7,6,1,77
640,3,11,1,2,55
640,3,0,2,8,49
641,8,10,4,4,312
641,8,5,12,2,20
641,8,8,5,7,42
641,8,13,5,1,292
641,8,10,8,1,29
641,8,0,5,5,95
641,8,4,0,2,33
641,8,1,8,6,226
642,9,9,11,2,245
642,9,0,11,7,116
642,9,7,4,3,48
642,9,12,5,4,112
642,9,11,2,1,98
642,9,11,5,3,36
642,9,2,3,4,184
642,9,13,5,3,25
642,9,6,10,5,24
643,5,13,1,1,25
643,5,7,11,6,32
643,5,7,5,8,221
643,5,5,1,1,255
643,5,6,7,3,45
644,4,8,0,2,53
644,4,6,2,2,45
644,4,10,9,4,48
644,4,8,1,3,26
645,10,6,12,5,182
645,10,1,7,4,15
645,10,5,7,6,228
645,10,13,8,6,80
645,10,10,7,4,94
645,10,11,8,3,121
645,10,13,9,1,8
645,10,7,8,8,5
645,10,4,9,4,87
645,10,1,13,3,75
646,5,8,4,4,80
646,5,6,2,8,47
646,5,3,1,5,49
646,5,0,10,5,146
646,5,9,7,4,63
647,5,6,8,2,52
647,5,5,8,3,57
647,5,10,1,8,160
647,5,10,7,6,28
647,5,4,8,5,276
648,3,1,12,1,20
648,3,8,11,8,143
648,3,4,0,3,56
649,2,0,4,6,100
649,2,12,13,2,39
650,9,9,3,6,119
650,9,11,9,2,143
650,9,3,13,7,33
650,9,3,1,5,7
650,9,12,5,1,11
650,9,11,5,1,5
650,9,13,9,2,21
650,9,11,2,2,58
650,9,7,12,5,41
651,5,11,9,5,109
651,5,11,4,7,68
651,5,2,10,4,44
651,5,3,8,1,234
651,5,5,8,4,114
652,3,5,12,5,117
652,3,1,7,6,66
652,3,11,8,7,164
653,2,7,12,5,154
653,2,0,3,8,84
654,3,0,5,3,44
654,3,9,1,2,122
654,3,3,8,2,94
655,2,5,11,7,3
655,2,7,3,4,295
656,2,8,6,5,47
656,2,12,1,5,30
657,5,2,13,6,165
657,5,3,0,6,37
657,5,13,1,2,12
657,5,3,6,1,45
657,5,11,6,3,18
658,5,3,12,8,54
658,5,13,7,2,13
658,5,0,13,3,21
658,5,5,7,3,81
658,5,6,9,7,5
659,4,12,11,1,77
659,4,13,12,2,222
659,4,0,2,6,84
659,4,0,2,6,134
660,5,11,1,1,132
660,5,10,3,4,117
660,5,6,10,1,88
660,5,5,3,5,20
660,5,13,1,6,62
661,3,1,7,5,143
661,3,7,11,3,246
661,3,7,12,3,218
662,3,13,7,4,13
662,3,11,4,4,113
662,3,10,0,3,26
663,3,0,3,3,232
663,3,8,6,7,78
663,3,5,2,2,155
664,2,4,0,2,42
664,2,1,10,2,133
665,7,1,0,5,9
665,7,9,2,6,52
665,7,0,4,7,18
665,7,5,6,3,74
665,7,12,7,3,18
665,7,6,2,1,69
665,7,11,10,8,43
666,6,1,12,1,152
666,6,1,2,6,47
666,6,10,8,2,14
666,6,6,2,2,115
666,6,2,3,5,48
666,6,8,13,6,31
667,1,10,5,7,1
668,7,5,11,4,67
668,7,0,8,3,1
668,7,9,13,1,2
668,7,0,11,4,27
668,7,7,6,3,60
668,7,12,8,8,59
668,7,5,4,1,17
669,4,10,1,1,94
669,4,3,12,8,118
669,4,1,12,3,552
669,4,1,7,3,51
670,4,11,9,5,123
670,4,4,13,8,1
670,4,13,10,7,124
670,4,1,2,4,276
671,6,4,8,1,17
671,6,8,4,4,125
671,6,13,5,6,110
671,6,11,10,7,261
671,6,1,0,5,57
671,6,7,12,6,6
672,3,6,13,8,56
672,3,11,5,6,39
672,3,13,0,8,84
673,4,8,5,5,22
673,4,8,5,8,50
673,4,7,9,2,7
673,4,2,13,6,26
674,2,10,5,3,249
674,2,2,6,4,28
675,5,10,8,4,48
675,5,7,4,1,35
675,5,13,12,4,65
675,5,6,3,5,101
675,5,12,8,1,68
676,4,4,8,5,129
676,4,9,1,2,23
676,4,5,8,6,11
676,4,7,2,3,129
677,12,10,12,7,191
677,12,12,10,1,424
677,12,11,0,6,59
677,12,9,1,4,237
677,12,10,9,4,18
677,12,10,2,1,11
677,12,2,9,6,17
677,12,11,13,3,81
677,12,8,13,6,5
677,12,10,3,3,171
677,12,8,10,7,176
677,12,11,12,5,249
678,8,5,12,6,14
678,8,1,9,3,78
678,8,0,3,2,171
678,8,10,11,7,131
678,8,11,12,7,19
678,8,0,3,7,18
678,8,13,3,3,154
678,8,6,7,5,99
679,5,4,7,1,100
679,5,3,2,3,24
679,5,6,2,3,65
679,5,9,1,4,112
679,5,12,1,4,49
680,5,8,6,3,191
680,5,10,13,3,56
680,5,0,1,3,79
680,5,10,3,7,58
680,5,9,11,2,37
681,3,8,3,4,123
681,3,9,4,7,14
681,3,3,4,8,21
682,4,8,11,2,148
682,4,11,4,7,86
682,4,12,2,8,94
682,4,13,9,4,114
683,6,7,12,1,76
683,6,13,12,2,74
683,6,0,9,8,14
683,6,9,13,3,65
683,6,13,4,6,280
683,6,1,9,3,32
684,3,4,5,1,48
684,3,5,6,8,135
684,3,4,7,1,127
685,3,12,11,3,47
685,3,10,1,2,32
685,3,9,12,7,103
686,2,7,4,4,118
686,2,7,10,7,196
687,6,3,1,2,69
687,6,3,9,1,23
687,6,13,1,4,98
687,6,8,4,5,1
687,6,4,10,2,211
687,6,13,4,4,42
688,4,10,1,2,21
688,4,12,13,5,28
688,4,0,5,4,93
688,4,4,10,7,61
689,4,7,8,3,58
689,4,10,7,7,75
689,4,4,5,3,116
689,4,7,4,5,136
690,4,7,8,1,51
690,4,4,9,5,20
690,4,6,2,3,21
690,4,12,8,8,120
691,4,12,7,8,50
691,4,5,0,6,10
691,4,10,2,4,36
691,4,13,4,3,32
692,6,13,11,1,39
692,6,8,13,6,11
692,6,7,1,8,89
692,6,1,5,5,68
692,6,10,9,7,130
692,6,1,10,6,172
693,7,4,2,4,70
693,7,1,2,8,13
693,7,8,1,4,19
693,7,10,8,6,23
693,7,13,0,7,69
693,7,4,7,7,229
693,7,3,7,4,256
694,8,7,1,1,91
694,8,9,0,1,17
694,8,12,5,2,15
694,8,9,10,7,374
694,8,7,2,8,17
694,8,13,1,2,38
694,8,12,11,7,202
694,8,8,6,1,40
695,4,9,12,4,95
695,4,0,8,8,233
695,4,9,3,7,39
695,4,4,13,1,46
696,3,8,1,7,13
696,3,2,3,2,247
696,3,6,7,1,423
697,3,13,0,2,5
697,3,1,7,8,122
697,3,10,11,3,208
699,7,12,7,8,16
699,7,13,6,2,4
699,7,10,3,8,132
699,7,7,10,7,38
699,7,4,11,8,434
699,7,0,12,3,142
699,7,2,11,3,52
700,2,0,8,7,248
700,2,4,7,4,37
701,7,11,0,6,126
701,7,4,2,2,300
701,7,7,1,7,20
701,7,2,12,3,14
701,7,1,12,7,314
701,7,8,6,5,273
701,7,9,0,4,82
702,5,10,12,2,56
702,5,13,2,5,44
702,5,7,8,8,74
702,5,7,10,6,162
702,5,7,0,8,60
703,4,11,7,8,130
703,4,10,11,2,70
703,4,12,0,5,11
703,4,7,12,1,56
704,3,4,11,4,4
704,3,0,13,3,92
704,3,5,10,5,60
705,7,1,6,5,52
705,7,11,1,8,197
705,7,5,11,8,142
705,7,11,12,8,3
705,7,12,3,8,383
705,7,5,1,2,5
705,7,9,5,4,57
706,2,7,9,2,21
706,2,0,13,6,268
707,5,5,10,2,8
707,5,5,13,1,76
707,5,9,10,1,62
707,5,1,2,5,19
707,5,7,2,1,68
708,4,7,9,6,126
708,4,7,5,8,129
708,4,7,11,1,114
708,4,0,7,3,83
709,5,2,1,3,25
709,5,13,12,1,68
709,5,1,13,5,195
709,5,13,12,8,218
709,5,11,1,5,59
710,4,11,0,6,70
710,4,3,1,5,236
710,4,1,3,7,33
710,4,10,5,6,127
711,5,11,13,1,214
711,5,4,6,3,313
711,5,10,13,5,116
711,5,7,11,1,99
711,5,0,3,4,77
712,5,0,2,5,49
712,5,3,10,1,229
712,5,5,8,8,42
712,5,3,9,3,50
712,5,6,4,5,22
713,4,7,9,1,62
713,4,3,13,5,351
713,4,6,1,1,119
713,4,7,5,4,143
714,3,4,5,2,272
714,3,5,1,7,35
714,3,6,4,5,8
715,2,13,10,3,15
715,2,5,3,7,94
716,1,8,5,1,160
717,5,11,4,2,119
717,5,12,9,3,44
717,5,4,10,4,121
717,5,6,13,7,216
717,5,1,5,8,22
718,9,5,9,7,117
718,9,5,7,5,26
718,9,4,10,1,25
718,9,6,0,1,163
718,9,1,10,8,27
718,9,4,10,7,14
718,9,4,11,8,104
718,9,9,5,4,21
718,9,4,11,4,33
719,4,10,2,3,46
719,4,12,8,2,407
719,4,12,4,5,9
719,4,12,3,3,15
720,6,9,5,1,55
720,6,2,9,4,94
720,6,0,4,7,97
720,6,7,13,2,5
720,6,4,5,3,53
720,6,10,13,5,25
721,3,4,8,7,75
721,3,5,11,8,106
721,3,4,1,1,25
722,3,9,11,7,42
722,3,2,9,1,39
722,3,0,3,4,26
723,2,2,9,8,11
723,2,8,9,8,63
724,5,9,7,7,71
724,5,0,1,4,16
724,5,9,0,4,22
724,5,8,5,5,43
724,5,8,2,6,1
725,7,1,11,4,115
725,7,9,2,8,100
725,7,1,0,4,25
725,7,13,2,2,45
725,7,6,0,4,39
725,7,8,9,8,25
725,7,2,4,6,52
726,6,1,6,8,219
726,6,0,8,8,48
726,6,9,3,4,6
726,6,4,7,1,63
726,6,6,12,1,164
726,6,1,13,6,31
727,6,10,1,1,5
727,6,11,6,7,342
727,6,13,3,5,66
727,6,10,3,8,22
727,6,9,13,6,66
727,6,8,0,7,5
728,2,5,9,5,388
728,2,11,6,8,164
729,8,8,1,2,82
729,8,3,0,5,28
729,8,2,3,3,55
729,8,13,7,3,10
729,8,6,11,4,76
729,8,8,10,4,287
729,8,6,10,3,46
729,8,13,5,8,267
730,10,2,5,7,327
730,10,6,11,2,50
730,10,13,4,7,66
730,10,0,4,8,35
730,10,10,9,6,116
730,10,2,6,1,43
730,10,12,13,1,56
730,10,5,11,2,204
730,10,1,3,6,235
730,10,3,6,8,30
731,13,3,6,8,44
731,13,6,1,2,192
731,13,10,7,2,236
731,13,5,13,3,55
731,13,1,13,7,85
731,13,4,1,6,49
731,13,11,1,3,32
731,13,7,5,5,38
731,13,7,8,6,63
731,13,6,7,6,47
731,13,9,12,3,88
731,13,2,6,6,4
731,13,0,10,7,19
732,6,6,3,6,73
732,6,10,2,1,9
732,6,7,6,5,50
732,6,0,8,7,171
732,6,6,1,3,51
732,6,4,10,5,109
733,4,7,11,5,118
733,4,2,9,3,46
733,4,7,5,2,33
733,4,3,1,6,68
734,7,9,5,4,98
734,7,13,9,6,15
734,7,10,0,4,28
734,7,2,8,5,221
734,7,5,11,5,68
734,7,9,11,5,36
734,7,1,7,1,180
735,9,2,12,4,51
735,9,12,13,4,194
735,9,1,9,5,54
735,9,8,5,7,70
735,9,1,4,2,22
735,9,10,11,3,11
735,9,1,3,4,82
735,9,13,4,1,32
735,9,4,2,1,20
736,5,8,13,3,175
736,5,12,1,8,107
736,5,7,12,6,145
736,5,12,1,3,30
736,5,5,6,7,24
737,4,2,8,2,61
737,4,5,6,3,48
737,4,2,5,3,296
737,4,0,10,1,44
738,1,0,12,5,379
739,3,12,5,1,27
739,3,10,7,1,154
739,3,8,13,7,308
740,5,0,2,4,72
740,5,6,8,2,86
740,5,5,8,7,25
740,5,12,6,5,80
740,5,6,9,1,137
741,9,10,3,1,45
741,9,2,12,4,50
741,9,9,1,1,28
741,9,3,0,4,217
741,9,2,3,7,87
741,9,10,0,7,122
741,9,5,10,2,58
741,9,5,1,7,101
741,9,11,2,4,57
742,6,11,2,8,53
742,6,0,9,3,442
742,6,4,12,1,44
742,6,9,1,6,8
742,6,3,13,4,36
742,6,3,5,4,5
743,3,11,9,6,633
743,3,1,7,6,108
743,3,11,12,4,78
744,7,12,8,8,4
744,7,12,2,1,31
744,7,10,12,6,8
744,7,7,5,7,32
744,7,3,9,4,47
744,7,5,0,6,366
744,7,11,13,4,52
745,5,8,1,7,223
745,5,0,7,1,177
745,5,5,12,8,109
745,5,0,3,3,277
745,5,5,11,3,284
746,9,8,2,4,11
746,9,1,13,8,134
746,9,8,7,3,64
746,9,11,3,5,62
746,9,13,5,5,27
746,9,1,6,6,27
746,9,3,11,8,6
746,9,2,10,1,289
746,9,1,13,4,232
747,5,7,8,6,36
747,5,12,5,5,6
747,5,12,10,1,4
747,5,2,3,8,85
747,5,0,1,5,64
748,6,6,4,2,57
748,6,13,3,5,48
748,6,9,12,4,31
748,6,13,8,3,26
748,6,0,2,8,30
748,6,6,1,2,140
749,5,13,1,5,56
749,5,3,8,3,34
749,5,7,2,3,106
749,5,10,7,3,7
749,5,4,3,8,115
750,5,13,3,1,222
750,5,0,11,8,92
750,5,12,3,8,58
750,5,10,6,2,26
750,5,11,10,7,45
751,5,2,4,2,9
751,5,4,13,4,160
751,5,1,10,8,4
751,5,10,6,5,158
751,5,13,4,6,81
752,6,13,8,4,42
752,6,8,1,6,58
752,6,4,9,1,4
752,6,2,0,3,474
752,6,5,8,7,96
752,6,12,5,2,25
753,5,1,11,6,138
753,5,5,7,2,161
753,5,2,4,5,53
753,5,4,6,4,245
753,5,6,5,1,114
754,8,10,13,8,84
754,8,8,10,8,220
754,8,11,13,4,213
754,8,10,13,2,48
754,8,0,4,4,205
754,8,8,5,7,216
754,8,1,3,7,76
754,8,12,3,4,69
755,3,3,0,6,3
755,3,3,7,1,93
755,3,0,1,3,12
756,4,8,1,6,45
756,4,3,9,4,13
756,4,13,9,4,18
756,4,11,9,2,52
757,5,12,7,8,88
757,5,8,12,2,116
757,5,3,7,3,170
757,5,3,2,2,170
757,5,2,1,1,45
758,5,13,11,6,130
758,5,5,1,4,4
758,5,8,12,3,186
758,5,12,9,4,43
758,5,0,10,2,104
759,4,7,1,2,60
759,4,12,6,4,42
759,4,5,9,4,47
759,4,10,0,8,64
760,8,10,5,4,38
760,8,12,4,3,105
760,8,5,13,1,179
760,8,12,9,3,42
760,8,4,12,5,350
760,8,3,12,2,32
760,8,3,12,1,252
760,8,5,11,7,125
761,6,7,2,5,87
761,6,11,12,5,40
761,6,0,2,8,36
761,6,9,1,5,20
761,6,9,5,5,1
761,6,6,9,3,161
762,4,10,5,5,30
762,4,13,9,7,251
762,4,5,6,2,78
762,4,6,0,1,42
763,5,2,8,4,79
763,5,8,5,7,51
763,5,13,11,6,31
763,5,5,13,2,46
763,5,4,0,5,43
764,3,10,4,4,88
764,3,7,9,7,228
764,3,4,8,3,100
765,8,13,2,3,97
765,8,12,9,3,109
765,8,9,5,4,82
765,8,12,11,7,149
765,8,10,7,4,73
765,8,6,3,2,33
765,8,7,2,5,140
765,8,9,4,8,15
766,4,7,4,2,33
766,4,13,3,6,173
766,4,2,11,8,1
766,4,3,0,6,59
767,9,9,1,4,134
767,9,1,2,8,114
767,9,6,1,8,29
767,9,3,6,2,20
767,9,3,7,1,7
767,9,8,4,7,23
767,9,4,9,3,140
767,9,8,3,1,135
767,9,4,1,5,74
768,4,9,3,5,325
768,4,0,5,8,94
768,4,5,6,5,61
768,4,6,10,8,60
769,8,6,12,2,97
769,8,10,7,5,137
769,8,8,0,8,499
769,8,7,13,5,39
769,8,4,7,4,54
769,8,3,4,1,70
769,8,8,10,4,31
769,8,4,5,8,109
770,6,9,0,7,177
770,6,8,0,8,50
770,6,12,0,6,8
770,6,13,8,8,142
770,6,7,2,8,47
770,6,13,7,3,3
771,6,12,13,6,92
771,6,13,4,1,80
771,6,12,3,5,82
771,6,11,12,3,50
771,6,10,6,2,98
771,6,1,2,8,35
772,2,2,6,3,15
772,2,12,8,4,161
773,4,4,11,5,52
773,4,8,0,2,326
773,4,9,12,7,50
773,4,13,3,8,273
774,6,10,9,7,112
774,6,3,7,3,1
774,6,0,6,6,139
774,6,11,2,4,58
774,6,2,8,1,94
774,6,8,3,8,54
775,4,12,2,6,118
775,4,10,8,8,182
775,4,7,11,6,141
775,4,2,9,6,223
776,10,1,4,4,102
776,10,9,13,6,190
776,10,3,1,7,60
776,10,7,3,2,4
776,10,4,9,5,8
776,10,7,9,3,12
776,10,6,3,2,3
776,10,8,10,7,152
776,10,0,1,7,41
776,10,0,2,6,228
777,5,12,10,5,23
777,5,0,5,5,117
777,5,3,7,5,197
777,5,12,7,8,14
777,5,10,3,8,104
778,4,4,0,8,24
778,4,13,12,2,57
778,4,8,13,5,241
778,4,1,13,7,41
779,5,5,6,8,24
779,5,8,9,8,36
779,5,10,3,5,33
779,5,7,6,7,29
779,5,0,4,3,23
780,7,3,4,4,95
780,7,7,5,4,84
780,7,1,3,5,22
780,7,13,11,8,13
780,7,1,8,7,13
780,7,2,13,2,47
780,7,7,6,5,12
781,8,12,7,3,21
781,8,7,6,4,28
781,8,0,9,7,4
781,8,8,11,6,33
781,8,11,4,5,45
781,8,7,13,6,101
781,8,7,4,7,184
781,8,0,13,1,19
782,6,0,1,1,155
782,6,7,5,8,8
782,6,11,1,6,71
782,6,7,10,2,142
782,6,4,12,1,27
782,6,0,7,7,200
783,1,5,1,8,87
784,2,9,13,1,18
784,2,2,0,6,34
785,4,13,1,2,98
785,4,10,4,7,24
785,4,6,4,7,121
785,4,7,12,8,53
786,6,7,13,4,110
786,6,9,2,4,129
786,6,6,2,3,7
786,6,3,6,5,27
786,6,5,4,6,16
786,6,10,12,4,121
787,10,3,10,6,125
787,10,9,11,3,276
787,10,10,0,5,37
787,10,10,11,3,20
787,10,4,2,4,4
787,10,2,6,3,31
787,10,9,11,1,250
787,10,0,3,3,20
787,10,3,5,1,17
787,10,10,8,6,18
788,7,9,12,2,110
788,7,8,6,8,9
788,7,0,3,7,52
788,7,9,10,8,8
788,7,0,6,2,173
788,7,2,5,4,10
788,7,0,12,5,58
789,6,0,3,3,46
789,6,4,9,3,72
789,6,13,12,3,40
789,6,9,5,8,160
789,6,10,6,3,12
789,6,7,3,3,131
790,5,8,0,6,14
790,5,2,3,8,8
790,5,9,0,7,312
790,5,10,12,4,252
790,5,7,4,5,4
791,5,10,6,4,46
791,5,7,8,2,21
791,5,5,7,3,78
791,5,8,13,7,51
791,5,7,8,4,42
792,4,10,8,4,169
792,4,4,7,8,25
792,4,4,11,6,57
792,4,1,6,5,135
793,5,6,2,5,77
793,5,11,0,8,97
793,5,7,1,5,32
793,5,5,1,6,34
793,5,0,11,7,21
794,6,6,8,2,183
794,6,0,11,2,89
794,6,12,2,3,168
794,6,3,4,7,191
794,6,12,2,7,10
794,6,7,4,1,188
795,1,9,8,1,46
796,7,8,11,1,131
796,7,8,9,7,33
796,7,7,11,4,6
796,7,12,8,6,56
796,7,4,8,2,94
796,7,6,9,4,116
796,7,4,1,2,213
797,7,11,7,4,12
797,7,0,1,5,189
797,7,12,10,1,10
797,7,3,5,7,195
797,7,2,5,8,208
797,7,7,4,7,67
797,7,9,11,6,76
798,7,3,6,6,12
798,7,3,8,2,36
798,7,3,0,5,34
798,7,4,7,3,80
798,7,3,5,2,81
798,7,9,10,7,95
798,7,12,5,4,4
799,7,7,10,4,141
799,7,5,10,5,104
799,7,4,12,4,28
799,7,6,11,8,141
799,7,2,7,7,163
799,7,9,4,2,63
799,7,1,4,8,166
800,9,0,7,5,186
800,9,9,3,6,68
800,9,7,6,1,13
800,9,1,10,6,52
800,9,4,10,5,190
800,9,3,8,7,61
800,9,1,0,1,139
800,9,1,8,4,1
800,9,12,0,5,35
801,6,12,6,6,39
801,6,5,10,6,167
801,6,9,2,6,192
801,6,9,8,4,73
801,6,6,4,1,35
801,6,11,2,3,9
802,7,10,3,2,90
802,7,0,1,7,64
802,7,8,9,4,79
802,7,6,1,8,19
802,7,10,5,2,5
802,7,13,9,6,11
802,7,7,4,5,225
803,2,6,13,3,23
803,2,10,12,5,87
804,4,1,4,7,31
804,4,3,7,5,100
804,4,4,2,5,28
804,4,10,5,2,71
805,8,9,1,5,83
805,8,11,10,8,57
805,8,9,2,6,37
805,8,8,0,6,211
805,8,12,7,3,212
805,8,11,6,8,60
805,8,13,4,7,42
805,8,13,5,2,51
806,4,2,4,8,90
806,4,4,10,2,311
806,4,11,2,2,61
806,4,0,3,6,113
807,10,10,13,1,27
807,10,2,13,1,83
807,10,7,0,6,74
807,10,1,6,4,57
807,10,5,8,6,25
807,10,3,7,2,54
807,10,9,0,1,235
807,10,1,9,3,103
807,10,1,11,7,81
807,10,8,3,3,114
808,4,12,0,3,345
808,4,4,11,5,37
808,4,11,10,7,212
808,4,6,13,2,50
809,5,3,5,5,382
809,5,9,12,1,235
809,5,9,1,8,239
809,5,10,3,3,89
809,5,1,8,6,32
810,8,2,11,1,43
810,8,4,12,7,15
810,8,7,1,3,156
810,8,11,5,5,92
810,8,11,12,2,23
810,8,2,8,6,236
810,8,7,5,7,63
810,8,5,9,8,63
811,3,0,13,7,76
811,3,3,9,4,92
811,3,10,4,4,114
812,5,3,5,8,187
812,5,1,5,2,75
812,5,13,4,8,446
812,5,6,2,2,131
812,5,4,8,7,4
813,5,0,6,7,106
813,5,3,2,4,27
813,5,6,0,1,2
813,5,6,10,7,135
813,5,6,3,8,14
814,2,11,12,4,210
814,2,6,4,8,93
815,4,9,10,4,61
815,4,10,8,8,395
815,4,7,13,2,102
815,4,6,2,8,15
816,5,6,11,5,9
816,5,4,5,1,26
816,5,6,0,5,34
816,5,12,8,6,26
816,5,0,11,4,35
817,3,9,2,7,30
817,3,5,12,4,158
817,3,13,2,7,196
818,4,0,6,2,212
818,4,8,7,4,228
818,4,1,13,7,19
818,4,6,0,5,104
819,4,8,6,7,22
819,4,11,4,8,135
819,4,7,4,5,143
819,4,2,6,2,361
820,9,12,3,1,44
820,9,9,4,4,102
820,9,3,13,5,96
820,9,9,5,1,72
820,9,11,1,6,33
820,9,2,10,5,1
820,9,1,3,4,8
820,9,7,4,5,109
820,9,6,0,7,91
821,5,7,6,3,178
821,5,6,13,8,696
821,5,6,5,2,29
821,5,9,10,8,49
821,5,7,2,3,41
822,8,2,8,2,69
822,8,0,1,2,22
822,8,3,5,6,22
822,8,6,11,1,96
822,8,1,9,4,121
822,8,5,12,2,93
822,8,7,6,1,181
822,8,5,0,7,213
823,2,2,10,7,19
823,2,10,1,8,184
824,8,7,1,8,40
824,8,8,2,7,36
824,8,12,0,4,39
824,8,2,0,8,66
824,8,0,8,8,5
824,8,1,7,6,31
824,8,10,13,6,59
824,8,5,0,5,27
825,5,11,4,2,27
825,5,5,6,8,155
825,5,10,12,2,58
825,5,12,7,1,123
825,5,13,12,7,190
826,6,12,11,3,55
826,6,1,9,7,38
826,6,12,9,7,125
826,6,6,4,2,72
826,6,8,11,5,146
826,6,12,1,1,128
827,8,3,12,8,14
827,8,12,1,8,33
827,8,10,2,8,238
827,8,9,4,4,96
827,8,8,7,5,94
827,8,1,12,6,168
827,8,5,12,1,47
827,8,8,3,4,15
828,6,0,3,6,9
828,6,6,2,5,34
828,6,11,13,7,30
828,6,10,8,7,109
828,6,7,2,1,23
828,6,8,13,5,189
829,5,3,13,5,33
829,5,8,4,5,80
829,5,12,13,1,97
829,5,9,7,5,311
829,5,11,12,5,230
830,5,5,1,8,2
830,5,1,9,6,89
830,5,5,11,2,157
830,5,8,6,7,12
830,5,3,2,4,90
831,5,4,2,1,21
831,5,1,3,7,375
831,5,5,13,7,157
831,5,13,4,2,27
831,5,0,6,6,33
832,5,3,12,1,180
832,5,4,3,7,129
832,5,6,13,3,7
832,5,3,11,6,61
832,5,3,2,1,40
833,2,5,4,5,26
833,2,8,6,1,15
834,5,2,0,7,145
834,5,7,6,6,200
834,5,7,2,4,81
834,5,1,13,5,12
834,5,12,3,8,43
835,8,10,9,3,106
835,8,6,12,6,98
835,8,4,11,3,36
835,8,12,9,2,264
835,8,7,10,1,12
835,8,8,7,8,55
835,8,3,9,2,67
835,8,3,0,8,8
836,5,2,4,7,213
836,5,6,2,1,279
836,5,0,10,4,156
836,5,0,3,8,162
836,5,9,8,4,161
837,8,1,13,1,7
837,8,0,6,4,117
837,8,1,12,3,61
837,8,9,11,1,3
837,8,13,1,2,104
837,8,6,11,6,10
837,8,1,13,2,68
837,8,4,3,2,60
838,8,8,7,2,216
838,8,2,4,8,169
838,8,4,13,8,67
838,8,10,1,5,166
838,8,9,11,4,24
838,8,12,13,7,170
838,8,2,3,3,79
838,8,0,3,4,45
839,4,2,3,2,4
839,4,7,12,6,89
839,4,2,1,1,268
839,4,0,10,6,83
840,6,0,4,5,238
840,6,2,13,5,215
840,6,2,7,6,45
840,6,0,5,6,389
840,6,9,12,5,72
840,6,13,1,2,99
842,8,12,7,7,13
842,8,0,8,8,330
842,8,2,11,8,194
842,8,0,7,4,146
842,8,2,6,3,1
842,8,13,11,8,272
842,8,4,7,3,118
842,8,0,8,1,2
843,9,3,11,7,58
843,9,4,12,8,117
843,9,9,5,8,50
843,9,12,5,1,26
843,9,10,3,2,20
843,9,7,4,2,38
843,9,1,0,2,171
843,9,5,2,2,165
843,9,2,10,1,64
844,4,5,7,3,282
844,4,8,10,4,83
844,4,7,1,6,144
844,4,11,12,2,50
845,4,4,8,5,19
845,4,7,0,4,41
845,4,4,10,2,33
845,4,5,8,4,24
846,6,8,7,2,94
846,6,10,3,7,66
846,6,11,4,1,168
846,6,7,3,4,51
846,6,4,11,5,59
846,6,1,2,4,89
847,7,12,1,1,12
847,7,1,7,3,155
847,7,8,2,4,1
847,7,6,3,6,17
847,7,12,5,7,35
847,7,6,12,2,2
847,7,8,7,8,13
848,4,0,13,5,143
848,4,12,1,5,71
848,4,7,5,7,44
848,4,11,13,4,39
849,2,5,1,2,137
849,2,1,9,8,91
850,6,9,11,6,16
850,6,5,6,1,397
850,6,7,11,6,7
850,6,1,0,1,6
850,6,10,6,4,99
850,6,11,9,7,47
851,5,5,13,2,86
851,5,12,0,8,2
851,5,2,9,5,111
851,5,4,10,7,31
851,5,8,9,3,50
852,7,6,8,3,178
852,7,2,12,6,30
852,7,4,7,2,55
852,7,6,13,1,252
852,7,12,2,2,2
852,7,1,12,6,317
852,7,6,10,7,105
853,11,5,0,2,17
853,11,10,8,3,58
853,11,4,1,2,763
853,11,9,12,5,64
853,11,1,8,4,82
853,11,3,13,8,69
853,11,1,11,2,1
853,11,4,12,1,41
853,11,0,3,1,49
853,11,4,13,1,67
853,11,7,13,4,67
854,7,7,12,5,75
854,7,2,5,8,132
854,7,12,0,5,65
854,7,8,6,3,117
854,7,3,1,7,19
854,7,11,2,4,98
854,7,3,4,6,42
855,4,10,4,7,185
855,4,13,9,1,105
855,4,9,6,3,61
855,4,13,5,7,133
856,7,10,8,6,23
856,7,13,0,6,68
856,7,8,3,8,63
856,7,1,0,8,63
856,7,9,8,1,49
856,7,6,11,8,191
856,7,6,8,7,38
857,5,7,13,1,45
857,5,2,0,6,204
857,5,6,0,1,110
857,5,10,3,5,54
857,5,1,0,5,2
858,6,9,3,1,229
858,6,6,4,7,241
858,6,13,6,2,38
858,6,4,7,3,14
858,6,3,8,1,172
858,6,0,11,6,374
859,5,10,8,5,32
859,5,6,3,4,69
859,5,5,13,4,30
859,5,2,6,4,136
859,5,13,4,8,32
860,6,11,3,5,251
860,6,12,10,4,22
860,6,1,7,3,28
860,6,9,5,1,23
860,6,11,2,6,115
860,6,9,6,7,14
861,8,5,4,8,28
861,8,10,2,4,37
861,8,5,12,8,590
861,8,3,6,2,135
861,8,0,4,5,39
861,8,11,10,2,25
861,8,7,2,5,18
861,8,9,8,2,3
862,4,9,4,2,223
862,4,8,13,8,31
862,4,8,13,7,55
862,4,3,1,7,19
863,13,12,1,3,64
863,13,1,6,6,20
863,13,6,2,6,127
863,13,0,8,8,29
863,13,9,13,4,109
863,13,1,12,3,162
863,13,10,12,4,3
863,13,11,12,1,5
863,13,9,5,5,79
863,13,6,10,8,5
863,13,10,5,2,243
863,13,5,3,8,66
863,13,5,3,2,231
864,6,1,6,8,30
864,6,5,2,7,199
864,6,13,6,7,87
864,6,12,13,2,2
864,6,5,12,4,219
864,6,13,3,7,189
865,5,5,1,8,299
865,5,3,6,4,98
865,5,6,11,2,115
865,5,3,0,8,16
865,5,3,8,6,237
866,6,7,11,7,23
866,6,1,13,1,130
866,6,13,5,3,174
866,6,3,6,5,13
866,6,1,13,8,59
866,6,9,0,7,23
867,8,12,6,1,9
867,8,0,13,2,21
867,8,6,9,5,18
867,8,2,9,5,50
867,8,6,9,3,129
867,8,8,2,4,10
867,8,0,2,3,197
867,8,2,1,2,7
868,5,10,7,3,127
868,5,1,8,8,23
868,5,3,13,2,57
868,5,10,13,6,139
868,5,13,5,7,217
869,7,5,4,6,91
869,7,4,11,6,11
869,7,12,9,3,101
869,7,5,10,6,26
869,7,1,11,5,87
869,7,0,1,8,70
869,7,11,0,1,14
870,5,0,12,1,234
870,5,5,0,1,36
870,5,8,7,5,37
870,5,0,13,4,25
870,5,4,5,5,120
871,3,7,1,8,74
871,3,0,12,3,19
871,3,10,6,7,5
872,5,1,11,3,47
872,5,8,6,3,102
872,5,6,12,3,5
872,5,10,2,6,43
872,5,0,1,6,30
873,5,12,9,7,36
873,5,6,3,8,232
873,5,11,0,3,30
873,5,11,10,3,275
873,5,8,12,8,21
874,9,0,12,8,122
874,9,5,0,2,5
874,9,4,13,2,20
874,9,3,10,7,25
874,9,3,12,3,50
874,9,2,9,3,72
874,9,13,2,6,23
874,9,6,12,3,166
874,9,11,8,1,75
875,6,8,11,6,176
875,6,11,7,5,154
875,6,7,11,4,39
875,6,7,9,7,66
875,6,0,13,4,50
875,6,10,6,3,34
876,4,7,12,6,33
876,4,0,12,2,1
876,4,11,4,3,125
876,4,9,12,1,46
877,6,5,3,2,175
877,6,12,6,1,74
877,6,11,12,7,3
877,6,9,3,8,305
877,6,5,0,8,62
877,6,7,5,8,79
878,6,3,6,6,23
878,6,10,12,7,95
878,6,11,5,2,120
878,6,4,10,5,9
878,6,13,12,8,13
878,6,10,4,1,69
879,4,10,9,5,189
879,4,10,3,4,139
879,4,0,11,6,43
879,4,8,0,8,438
880,5,5,6,6,38
880,5,8,10,6,53
880,5,0,7,1,17
880,5,8,12,3,51
880,5,1,6,7,50
881,8,9,5,1,346
881,8,12,10,2,226
881,8,13,6,3,53
881,8,13,10,8,4
881,8,9,2,6,6
881,8,12,11,7,16
881,8,3,13,4,1
881,8,2,4,8,14
882,1,11,10,2,203
883,3,13,9,6,55
883,3,0,9,5,65
883,3,1,13,4,9
884,7,1,9,5,21
884,7,1,7,6,43
884,7,11,10,6,31
884,7,2,12,5,27
884,7,12,6,7,108
884,7,6,4,3,1
884,7,6,1,5,4
885,5,4,2,4,31
885,5,13,7,7,239
885,5,11,10,4,12
885,5,1,5,4,57
885,5,4,10,3,74
886,4,7,8,8,16
886,4,13,8,4,101
886,4,12,1,8,19
886,4,8,2,1,245
887,9,10,11,1,137
887,9,0,12,4,68
887,9,3,4,7,96
887,9,7,1,2,18
887,9,8,2,3,27
887,9,0,6,6,249
887,9,3,4,1,51
887,9,0,10,7,145
887,9,4,5,6,62
888,3,4,9,3,56
888,3,3,0,6,19
888,3,2,13,6,35
889,5,2,12,1,79
889,5,11,5,7,236
889,5,7,8,1,19
889,5,13,2,2,64
889,5,9,3,3,18
890,2,1,5,4,105
890,2,8,5,5,22
891,3,6,9,4,51
891,3,12,7,6,49
891,3,13,7,1,173
892,8,3,11,2,64
892,8,0,8,2,8
892,8,6,3,6,24
892,8,11,3,8,174
892,8,12,8,3,269
892,8,3,13,1,2
892,8,1,13,7,62
892,8,5,12,8,37
893,7,4,7,3,153
893,7,3,7,3,24
893,7,0,5,1,10
893,7,3,12,1,51
893,7,4,2,2,74
893,7,5,7,3,82
893,7,13,8,3,157
894,2,6,5,3,165
894,2,4,1,1,8
895,10,7,3,2,19
895,10,7,8,5,506
895,10,7,1,7,88
895,10,6,9,7,39
895,10,1,3,8,25
895,10,8,12,6,15
895,10,7,12,4,127
895,10,0,10,4,50
895,10,13,12,1,82
895,10,10,12,2,95
896,6,2,3,2,392
896,6,0,4,5,86
896,6,13,5,5,25
896,6,5,8,3,181
896,6,12,2,2,46
896,6,9,8,6,101
897,7,13,2,5,61
897,7,3,0,5,43
897,7,4,13,8,22
897,7,0,5,5,74
897,7,0,13,2,137
897,7,3,8,5,273
897,7,3,8,8,151
898,1,10,2,5,4
899,4,12,9,8,38
899,4,9,4,5,137
899,4,13,6,8,12
899,4,13,8,5,296
900,8,12,8,6,121
900,8,2,6,6,14
900,8,7,4,1,122
900,8,2,3,6,24
900,8,9,13,1,39
900,8,12,2,7,31
900,8,12,3,6,17
900,8,1,10,7,177
901,7,9,4,3,34
901,7,12,6,6,136
901,7,2,10,5,83
901,7,0,13,8,15
901,7,6,11,1,22
901,7,4,6,7,72
901,7,0,13,2,57
902,7,2,8,8,79
902,7,8,4,8,70
902,7,11,12,3,226
902,7,13,11,2,134
902,7,7,5,6,84
902,7,11,1,6,37
902,7,10,4,8,85
903,6,3,10,4,36
903,6,0,6,5,124
903,6,12,13,4,302
903,6,7,0,3,155
903,6,7,13,7,190
903,6,12,8,3,24
904,8,10,12,6,71
904,8,4,6,1,33
904,8,4,2,5,63
904,8,11,2,5,177
904,8,11,13,4,218
904,8,10,0,5,94
904,8,2,3,3,146
904,8,12,9,1,22
905,8,0,6,4,54
905,8,5,10,1,22
905,8,7,13,3,277
905,8,0,1,1,8
905,8,11,2,6,71
905,8,7,8,4,15
905,8,5,1,6,64
905,8,10,9,8,77
906,6,11,13,7,7
906,6,13,9,5,107
906,6,7,4,1,11
906,6,12,9,8,135
906,6,10,3,7,2
906,6,2,13,2,206
907,5,5,11,1,24
907,5,7,4,2,13
907,5,4,12,2,98
907,5,4,2,2,9
907,5,6,11,1,77
908,6,10,4,7,59
908,6,8,9,8,39
908,6,2,4,7,103
908,6,2,6,4,22
908,6,1,13,3,96
908,6,3,12,7,132
909,2,3,2,4,12
909,2,13,5,6,26
910,5,7,4,7,91
910,5,9,7,1,83
910,5,0,9,3,159
910,5,5,3,5,13
910,5,8,10,1,68
911,3,2,7,7,328
911,3,0,11,2,10
911,3,10,11,6,7
912,3,2,11,3,59
912,3,9,6,1,49
912,3,2,5,5,30
913,1,3,9,7,47
914,7,13,9,1,6
914,7,1,3,3,25
914,7,6,5,2,91
914,7,2,0,5,12
914,7,12,8,1,10
914,7,0,4,6,121
914,7,13,4,1,149
915,3,5,10,7,128
915,3,0,4,7,46
915,3,11,9,7,92
916,3,12,2,6,112
916,3,2,5,5,24
916,3,0,13,7,507
917,4,6,1,5,57
917,4,9,6,2,137
917,4,2,1,7,258
917,4,8,13,8,32
918,6,0,10,7,108
918,6,4,9,8,89
918,6,11,7,3,20
918,6,2,3,8,22
918,6,10,12,4,41
918,6,2,5,4,42
919,5,12,7,1,8
919,5,1,9,6,8
919,5,9,6,7,197
919,5,8,5,8,83
919,5,3,13,1,66
920,3,9,2,4,5
920,3,7,12,8,130
920,3,2,3,7,51
921,4,6,12,6,119
921,4,9,1,4,28
921,4,8,7,6,65
921,4,9,4,6,282
922,6,1,11,1,69
922,6,8,6,8,96
922,6,5,7,1,25
922,6,5,1,2,23
922,6,3,9,6,11
922,6,8,1,1,162
923,7,9,1,6,21
923,7,5,1,7,67
923,7,8,7,1,79
923,7,3,13,8,64
923,7,8,5,4,105
923,7,6,0,6,34
923,7,13,2,8,107
924,3,6,5,4,43
924,3,4,9,6,63
924,3,5,7,2,26
925,1,3,0,4,72
926,4,8,9,6,256
926,4,11,5,1,105
926,4,10,13,5,37
926,4,12,4,3,91
927,5,9,3,6,258
927,5,6,5,7,17
927,5,12,10,3,361
927,5,9,7,4,73
927,5,1,6,1,100
928,2,5,1,8,104
928,2,6,2,3,383
929,4,10,4,1,4
929,4,0,3,5,65
929,4,10,0,4,31
929,4,11,8,1,33
930,7,1,9,6,65
930,7,6,2,8,14
930,7,12,8,1,209
930,7,2,10,2,68
930,7,9,11,6,83
930,7,3,8,8,160
930,7,5,8,2,172
931,5,11,6,1,128
931,5,13,1,5,20
931,5,12,11,5,89
931,5,0,8,5,104
931,5,4,3,4,28
932,4,10,6,8,30
932,4,9,11,3,16
932,4,4,2,4,47
932,4,13,12,3,74
933,3,4,5,7,114
933,3,3,7,5,38
933,3,11,7,8,71
934,7,12,4,7,105
934,7,7,5,5,102
934,7,12,5,1,95
934,7,8,2,1,68
934,7,12,7,6,17
934,7,10,7,1,63
934,7,8,2,4,7
935,5,10,1,6,15
935,5,3,6,4,10
935,5,13,7,4,173
935,5,7,4,2,134
935,5,13,12,7,99
936,4,5,13,4,231
936,4,10,9,8,47
936,4,7,13,1,173
936,4,6,4,7,79
937,4,2,6,1,17
937,4,5,11,5,86
937,4,3,6,7,7
937,4,13,5,2,207
938,8,5,6,7,80
938,8,10,5,7,156
938,8,0,13,8,157
938,8,9,6,4,9
938,8,2,6,7,219
938,8,11,6,5,187
938,8,2,4,4,143
938,8,2,9,3,169
939,4,4,2,8,308
939,4,12,13,8,33
939,4,13,4,1,439
939,4,5,4,1,43
940,2,1,8,3,35
940,2,0,13,4,31
941,3,1,13,2,18
941,3,7,6,7,227
941,3,6,2,1,75
942,6,0,8,5,20
942,6,3,7,2,89
942,6,2,11,8,14
942,6,7,1,5,55
942,6,2,12,2,51
942,6,8,11,4,108
943,7,0,12,8,54
943,7,9,12,6,44
943,7,0,13,5,259
943,7,4,1,5,34
943,7,12,5,2,147
943,7,1,2,7,48
943,7,6,0,2,74
944,6,8,10,6,13
944,6,0,6,3,6
944,6,3,2,4,144
944,6,4,13,1,20
944,6,10,3,4,9
944,6,13,12,6,44
945,5,1,11,2,53
945,5,8,0,5,127
945,5,8,7,7,47
945,5,4,2,5,4
945,5,11,6,7,91
946,3,6,12,8,22
946,3,7,12,3,31
946,3,4,7,1,59
947,8,3,4,4,176
947,8,4,9,6,97
947,8,6,0,6,41
947,8,7,9,5,332
947,8,6,3,1,15
947,8,13,4,2,24
947,8,12,7,6,41
947,8,11,6,5,25
948,6,8,3,5,10
948,6,11,1,4,121
948,6,1,11,1,123
948,6,0,4,1,30
948,6,10,4,7,87
948,6,8,5,7,48
949,7,8,0,2,85
949,7,5,1,6,84
949,7,12,2,5,63
949,7,11,9,4,496
949,7,1,6,6,19
949,7,8,9,1,63
949,7,11,2,4,11
950,5,2,13,1,5
950,5,8,3,4,177
950,5,13,0,6,75
950,5,5,6,5,28
950,5,13,6,1,160
951,1,5,10,2,59
952,3,2,5,3,177
952,3,11,8,2,64
952,3,10,6,5,79
953,3,3,7,6,73
953,3,13,9,4,29
953,3,8,9,8,45
954,2,5,6,7,76
954,2,6,1,5,65
955,7,11,0,4,61
955,7,8,10,2,216
955,7,13,7,1,193
955,7,1,12,3,62
955,7,12,13,2,71
955,7,1,10,7,188
955,7,12,7,2,75
956,4,3,4,7,15
956,4,9,3,4,54
956,4,11,4,3,184
956,4,6,3,2,30
957,7,8,6,8,70
957,7,6,13,8,2
957,7,8,10,5,45
957,7,2,3,2,100
957,7,12,6,6,39
957,7,7,12,5,76
957,7,13,8,3,38
958,5,6,0,7,6
958,5,10,6,5,8
958,5,7,11,4,16
958,5,11,7,6,50
958,5,13,2,6,58
959,5,0,11,7,205
959,5,8,11,2,83
959,5,0,8,8,118
959,5,2,8,6,1
959,5,13,12,4,28
960,2,9,4,4,139
960,2,8,3,4,33
961,8,3,7,4,26
961,8,13,11,2,66
961,8,2,1,8,148
961,8,0,10,6,77
961,8,8,0,8,10
961,8,3,2,5,44
961,8,4,13,2,139
961,8,11,12,4,20
962,4,1,4,4,88
962,4,6,1,8,113
962,4,5,0,1,119
962,4,12,11,8,77
963,4,4,7,5,13
963,4,7,3,1,77
963,4,0,3,5,506
963,4,0,13,5,31
964,1,6,11,2,43
965,7,10,8,7,70
965,7,12,2,8,12
965,7,10,7,7,13
965,7,9,5,4,38
965,7,13,2,6,6
965,7,2,12,6,30
965,7,2,1,2,51
966,3,8,4,3,175
966,3,8,2,8,23
966,3,1,3,1,246
967,4,13,10,7,33
967,4,3,2,1,119
967,4,11,10,3,139
967,4,4,6,3,59
968,9,6,7,6,153
968,9,7,3,2,119
968,9,7,11,8,48
968,9,2,13,6,23
968,9,4,0,2,76
968,9,4,1,4,33
968,9,9,7,7,46
968,9,9,1,2,36
968,9,7,9,6,97
969,6,10,7,1,129
969,6,1,2,4,103
969,6,11,12,2,1
969,6,7,2,2,126
969,6,0,8,5,148
969,6,6,13,5,134
970,6,2,6,7,429
970,6,5,2,7,15
970,6,9,5,4,63
970,6,5,8,1,55
970,6,1,13,7,9
970,6,3,11,7,239
971,7,9,6,5,296
971,7,4,13,8,65
971,7,10,8,1,117
971,7,3,5,1,8
971,7,2,4,1,143
971,7,0,2,7,14
971,7,3,2,2,1
972,3,7,13,7,194
972,3,7,9,4,104
972,3,2,13,1,16
973,5,10,13,5,81
973,5,12,3,5,6
973,5,7,5,5,7
973,5,6,10,3,65
973,5,8,9,4,8
974,7,8,7,2,26
974,7,4,10,3,12
974,7,5,4,7,63
974,7,1,5,4,39
974,7,13,1,2,468
974,7,5,6,6,168
974,7,12,10,6,155
975,5,6,13,8,93
975,5,12,11,2,85
975,5,1,10,2,113
975,5,7,2,5,362
975,5,12,8,5,28
976,8,1,8,2,55
976,8,6,7,1,11
976,8,5,6,3,16
976,8,1,11,4,47
976,8,2,8,7,21
976,8,2,7,5,47
976,8,12,8,3,64
976,8,1,10,7,433
977,2,3,10,2,39
977,2,2,8,8,45
978,6,10,3,7,4
978,6,1,4,3,77
978,6,1,5,7,97
978,6,2,9,2,13
978,6,4,8,8,172
978,6,9,8,7,38
979,4,9,4,8,9
979,4,2,4,4,257
979,4,6,8,4,34
979,4,12,3,2,96
980,6,2,12,6,155
980,6,0,3,6,148
980,6,6,8,6,149
980,6,0,7,4,111
980,6,12,4,5,106
980,6,8,7,5,140
981,3,9,7,3,37
981,3,13,0,7,124
981,3,5,13,7,42
982,7,11,4,3,122
982,7,4,11,2,75
982,7,7,12,1,51
982,7,13,3,5,137
982,7,12,8,4,33
982,7,13,4,2,13
982,7,13,10,1,57
983,7,13,7,2,20
983,7,8,5,7,13
983,7,4,6,6,106
983,7,6,11,8,65
983,7,8,3,1,4
983,7,0,7,3,19
983,7,9,13,1,140
984,3,1,9,2,104
984,3,3,5,5,21
984,3,1,4,8,113
985,7,10,0,2,53
985,7,8,5,1,194
985,7,0,10,5,24
985,7,7,13,2,106
985,7,4,5,8,11
985,7,6,10,6,24
985,7,10,12,5,115
986,11,1,6,8,18
986,11,9,1,4,22
986,11,6,3,5,100
986,11,13,10,1,319
986,11,11,8,6,125
986,11,9,0,4,45
986,11,5,4,7,10
986,11,10,0,8,158
986,11,8,12,5,47
986,11,9,7,2,104
986,11,4,1,3,24
987,1,8,7,4,298
988,6,0,1,3,187
988,6,0,1,6,116
988,6,6,8,4,13
988,6,6,10,6,13
988,6,8,9,1,2
988,6,1,11,5,68
989,3,7,11,5,44
989,3,9,8,6,91
989,3,3,4,8,49
990,8,0,7,5,25
990,8,0,13,3,59
990,8,2,11,5,127
990,8,7,1,2,318
990,8,9,0,2,94
990,8,9,1,7,381
990,8,6,3,2,98
990,8,2,6,1,184
991,5,1,13,1,26
991,5,9,12,7,30
991,5,0,13,8,30
991,5,5,6,1,31
991,5,4,1,3,21
992,4,4,5,4,40
992,4,1,13,1,88
992,4,6,10,7,210
992,4,8,3,7,39
993,7,11,2,2,164
993,7,0,1,4,273
993,7,6,13,1,439
993,7,6,13,8,99
993,7,7,1,4,2
993,7,3,4,1,19
993,7,10,13,6,109
994,4,4,3,6,1
994,4,6,2,4,53
994,4,12,9,2,132
994,4,0,4,7,7
995,3,12,7,2,92
995,3,4,8,6,56
995,3,1,0,3,119
996,8,1,10,8,105
996,8,4,13,7,36
996,8,0,8,1,9
996,8,2,8,6,23
996,8,8,7,7,84
996,8,5,11,4,67
996,8,0,7,1,23
996,8,0,8,8,45
997,4,2,3,1,127
997,4,10,1,6,112
997,4,1,10,7,107
997,4,7,10,5,166
998,13,12,11,2,8
998,13,0,6,4,67
998,13,5,10,2,71
998,13,8,0,4,54
998,13,9,11,8,2
998,13,2,13,6,30
998,13,1,6,5,6
998,13,11,5,4,50
998,13,11,9,6,31
998,13,2,0,1,177
998,13,6,1,7,13
998,13,8,13,5,268
998,13,2,12,7,126
999,12,5,12,7,30
999,12,11,12,8,39
999,12,6,13,5,82
999,12,2,13,2,145
999,12,7,0,8,69
999,12,4,13,8,55
999,12,9,13,2,260
999,12,13,12,3,84
999,12,6,9,2,154
999,12,10,1,6,75
999,12,6,5,8,160
999,12,11,5,1,12
